<?xml version="1.0" encoding="UTF-8" standalone="no"?>
<svg
   xmlns:dc="http://purl.org/dc/elements/1.1/"
   xmlns:cc="http://creativecommons.org/ns#"
   xmlns:rdf="http://www.w3.org/1999/02/22-rdf-syntax-ns#"
   xmlns:svg="http://www.w3.org/2000/svg"
   xmlns="http://www.w3.org/2000/svg"
   xmlns:xlink="http://www.w3.org/1999/xlink"
   viewBox="0 0 1200 1200"
   height="1200"
   width="1200"
   id="svg4539"
   version="1.1">
  <metadata
     id="metadata4545">
    <rdf:RDF>
      <cc:Work
         rdf:about="">
        <dc:format>image/svg+xml</dc:format>
        <dc:type
           rdf:resource="http://purl.org/dc/dcmitype/StillImage" />
        <dc:title></dc:title>
      </cc:Work>
    </rdf:RDF>
  </metadata>
  <defs
     id="defs4543" />
  <image
     y="0"
     x="0"
     id="image4547"
     xlink:href="data:image/png;base64,iVBORw0KGgoAAAANSUhEUgAABLAAAASwCAQAAABBKHtEAAAABGdBTUEAALGPC/xhBQAAACBjSFJN AAB6JgAAgIQAAPoAAACA6AAAdTAAAOpgAAA6mAAAF3CculE8AAAAAmJLR0QA/4ePzL8AAAAHdElN RQfhCBkJMCWXPuhoAACAAElEQVR42uzdd5gVVb6v8ZcmRwEVVHJSMCtmMWPOOaKYc0ZRZ845M+ee ccxjHnNOY1YwY84BsxgBCSqgknPq+4cMQ6jq3rt7h1pV78fnuXeOQnfVd62961erVq1VB0kqhaa0 pBXNaUpTGtCSerSgEY1pRn1aUY/mNKYR0JAmi/5GHVou/tvNqL/of81j+uJ/O5nKRf9rJnOA2cxi GvOZxDymM4vZTGUeU5jLDGYwjUlMZoZNIan46hiBpAJpQBvashItaUlLWtFq0f9qSStaLi6Qym0e k5nEZCYv+v8nLfpfvzOOX5lrM0qywJJUHo1oTStWZbWl/t+2VAR/ZrP5mV+YtNT/O5YpNrkkCyxJ hdWETnSgPR3pSAfa055mGUtgOmMZyxhGM5qxjGEUM+0WkiywJOXzrdCeTkuUVO1Z0VCW8ztjGc1o xjCWUYxi7OLZYJJkgSUJgFasxZp0pStdWSNz41OFMJexjGAEIxjGV4xigZFIFliSsqYenei+6J8e dKGBkRTUHEbyA9/zA8P5gR8ttyQLLElpVZdOrMWarMWa9Fq8FIKKbx5jGMZQvmIY31hsSRZYkiyq VOhi63u+YpjFlmSBJSk0K7EBG7IevehFQ+NIrDl8zdd8yid8wm/GIVlgSUqi1ejNmqxFb3r5yQ7O L4seIQ5lmO8jShZYkpJQVvWmNxvT1jBSYTJfMZShDOVrFhqHZIElqZRl1WZsxqasTwvDSK2pfMr7 vMd7/GwYkgWWpGKpz7r0oTe9WdMwMuUXhjKUt3ibWYYhWWBJKozV6M2W9KE3jQwj0+bzHW/xtjO1 JAssSTVVn43Ymi3ZlDaGoWVM4D3e5g0+Yr5hSBZYkqpXj/XoSx+2YgXDUDVm8glvMYS3mG0YkgWW pOU1pjdb0pctaWwYytM8PmcIb/M6Uw1DssCSBE3ZgC3pSx9nWKnW5vMZQ3ibN5lsGJIFlpRFFWxA X/qylautq+AW8ClDGMLrzDMMyQJLyoZV2ZE92IHWRqEim85rDOJFfjQKyQJLSqumbE5f+tLbKFRi IxjCEF7ywaFkgSWlR102Zid2ZDPqGYbKaD7v8hIv8qGb8EgWWFLImrADe7AnqxqFEuR3XmEwTzHF KCQLLCksndmJPdnRCexKrAW8xyCe4hujkCywpKSrYAP2ZA/nWSkYIxjMIN83lCywpGTycaBC9sdj w6edBi9ZYElJsRL7sD/b08AoFLi5vMJjPMlvRiFZYEnlLK1240B2pr5RKEUW8B6P8Ag/G4VkgSWV Vnt2Y092ceEFpdZC3mUQjzLcKCQLLKn4OrEPB7KFnx5lxDAe4QG+MwjJAksqjm4czP5saBDKoKE8 xr8YYRCSBZZUOK05gCMdtVLmDeMe7macQUgWWFLtNGYPjnQau7TYAt7jHh5kmlFIFlhS/uqyHUey L82MQlrObIZwD08x1ygkCywpV705kkNoYxBSlSYxmHt4mUqjkCywpKr05CgOo6NBSDkbxQPc456G kgWWFKUF+9CPHfxUSDUylFucmSVZYElL6s0JHOZsK6mWZjOIW3xkKFlgSavRj+PobhBSwYzhAW7i R4OQBZaURQ3ZiX7s62Y3UhEs5BXu5VFmGoUssKTsWJ9jOJzWBiEV1e88wO18ZhCywJLSriF7cQJ9 DUIqmaHcwn2OZckCS0qr7hzHsaxkEFLJTeZhrmGYQcgCS0qTCrbnBPajrlFIZVPJy9zCE8w3Cllg SeFbhaM4mU4GISXCL9zDjYw2CFlgSeHqzZkc4kbNUsIs4Dmucb0sWWBJ4WlGf05jDYOQEutbrucu phuELLCkMKzKiZzuIgxSAKZyF1cxyiBkgSUlW2/O5FAXD5UCspBnuYYhBiELLCmJ6rIbF7CFQUhB +phreJB5BiELLCk5VqA/59DRIKSgjeNmruN3g5AFllR+3TmdY2lqEFIqzOFhLuUrg5AFllQ+WzOQ Xe3HUspU8iyX8qZByAJLKn3f3cMZV1KqDeVa7mOhQcgCSyqNCvbnf1jLIKTU+5LLnfouCyyp+Bpy MP9Fd4OQMmMU/+BWZhqELLCk4mjB0QxkVYOQMuc3buBaJhqELLCkwmrLyZzFCgYhZdZ07uAKxhiE LLCkwujKRfSjgUFImTeXe/g7IwxCFlhS7XTmQo5x6xtJi83jIf4f3xuELLAkiytJhbSQx/gz3xmE LLAkiytJFlmywJLKpgsXWFxJssiSBZZkcSXJIkuywFICrc6fOYy6BiEpT/N5gP9z4rsssKRltee/ HLmSVAsLeYzz+dEgZIEl/aE153MGjQ1CUi3N5S7+iwkGIQssZV1TTuMCWhqEpAKZzg1czFSDUDk5 20XlVJ/jeIJ9aGQUkgqmAX04ngqGMt8wVC6OYKlcKtifv9PNICQVyWj+xu0sMAhZYCk7+nI56xuD pCL7mv/hUSoNQhZYSr9tuITNjEFSibzLBbxhDLLAUpr14G8caAySSmwIZ/GVMcgCS2nUioGcRUOD kFQG87iTP/OrQag0fItQpfHH+4I7uZCopLJd73pzHPCR095VCo5gqRT25Cq6G4OkBBjNf3Gv095l gaXQbcSVbG0MkhLkfc7hHWNQMVUYgYqoPTfzvuWVpITZlLd4mM4GoeJxDpaKpTl/4X42c5RUUgLV YS1OpDEfMNcwVJwuJhXDnlxPR2OQlHA/c6EzsmSBpTD05Fp2NAZJgXiD0/ncGFRYzsFSYbXkGr6w vJIUkK0Zys2saBAqJOdgqXDqcCRPs71lu6TAVNCb45jDhz4sVOEuiVJhbMj1bG4MkgI2lNN51xhU mKpdqr3WXMMHlleSAtebt7mHNgah2vMRoWpfpPdjENtZrEtKgTqsx/HM5iMfFqq2XUmqjU25mfWM QVLKfMKJfGgMqjlHHVRzK3ANb1teSUqhDXiPm2lhEKopHxGqpvZkMDtZoktKqTr0pj+/8plRqGYd SMpfO65hf2OQlAGDOY1RxqB8OYKlfNXjdB5jfYOQlAmrcwILeJ+FRqF8OIKl/GzAzWxsDJIy5jNO 5H1jUO6cQaPcNeUSPrS8kpRB6/GOk96VD0ewlKt9uY52xiApw8ZyGk8ZgyywVChtuJ4DjUGSGMyJ /GwMqo6T3FW9A3nWB4OSBMDqHMMkhhqEquYIlqrWlhvZzxgkaSnPcCI/GYPiOYKlqhzIs/Q2Bkla huNYqoYjWIqzKjeyjzFIUqznOYExxqAojmAp2oE8ywbGIElV6M4xTORjg9DyHMHS8lbjJvY0BknK yYuc4GY6WpYjWFq25D6Jp1jHICQpR9041vlYWv5yKv1HW25jD2OQpLy9xDGMNQb9m1vl6D8O4CvL K0mqkR35giOMQRZYWtoK3MwjrGgQklRDLbmXh2ltEAIfEeoPO3AnHYxBkmptHMfyrDHIESw14hJe tLySpIJYhcHcTBODyDpHsLJuHe5jXWOQpIL6mn6+V5htLtOQ7dY/nwdZzSAkqcBW5hjq8iaVRpFV jmBlVxfuZitjkKSieZ9+fG8M2eQcrKzqz+eWV5JUVJsylCONIZscwcqi5tzoai2SVCKPcAKTjcEC S2nXm4fobgySVDI/cijvGUO2OMk9awX1mTzEygYhSSXUkv7U5Q2nvGfrgqvsWJk72d0YJKkshtCP ccZggaW02Y77XJJBkspoAkfygjFkg48Is6Ee/83ttDAISSqjphxOa15moVGknyNYWdCRB9jSGCQp ET7gUEYYQ9q5Dlb6HcBnlleSlBib8BH7GYMFlkJWj0t4mJYGIUkJ0orHuJkGBpFmPiJMs3b8y7Er SUqoDzmQUcaQVo5gpde2fGR5JUmJtTEfsZMxpJVvEaZTHQZyt28NSlKiNeEwKlyANK0XYqXPitzL rsYgSUF4ln5MNAYLLCVdbx6hizFIUjDGcJB7FaaNjwjT5gQeYyVjkKSArEA/pvG+QaSJI1hp0oxb ONQYJClI93MiM4zBAktJswZP0MsYJClYX7Ev3xtDOrhMQ1rszvuWV5IUtLX4wFeU0sI5WGlQh4u4 lcYGIUmBa8QhzOEdg0jDpVmha8qdHGgMkpQa/+JYZ2NZYKm8OvAEvY1BklLlc/ZhpDGEzDlYYevL J5ZXkpQ66/IB2xtDyJyDFbITuJ9mxqACmcw3tPY7oRYm8Q5N/UyqQJpwBHN42yBC5SPCUDXiFvoZ g2ppHl/zCZ/yOcMYx0AuMZJa2YenWIW1WIcNWJ9e1DcS1dI9nMhsY7DAUqm043E2MQbV0Fx+YOii f2Yt/rcNGcFqhlMrH7DpEv9XfVanN73pzXqOa6nGPmFfRhmDBZZKYQsep60xKE/T+YgP+JhP+Z6F Ef/9BG42pFrbhjci/m0FPVifDdmU3pZaytt49nPhBgssFd9B3OWaV8rZAr5dNFb1AXOr+HMVfEMP 46q1Z9m9yv9el570pjdbsr7z3ZSzORzPvcZggaVittf5/N1WUw5+WVRWvcWknP78gTxsaAWxIZ/k 9OeasT696c1WdDY0VauSy7gocuxZFliqtYbcxhHGoGoKq7cYwtt8leffe2+p2UOqufvz/pSuxpb0 pQ+9/EZWlR7hqCVmTcoCSwWyEo+zlTEoxgiG8Dav13Ay7A4MMcICWcAaDK/R31yFjdmSvmzgCoWK vRHah/HGYIGlQlqHQXQyBi1jIZ/wBq/zFr/X6ue8yI6GWTDXcUat/v6K9GEbtmF9Cy0t50f25Etj sMBSoezMv1jBGLSEPx4FDuKXAvys9fjE74ICmklnfi3Az1mR7enLjnQxUi1hOocxyBgssFQIJ3AD 9YxBi75c32MIQxhawJ/5Lw4y2IL6X/6ngD+tK33pyw60NlgBsIA/cakxWGCpdupxLScbg5jH2wzh JYayoMA/uSvfuWBAgU2kE9ML/DPrshF92ZEtvd0ScANnMd8YLLBUUyvwMDsZQ8b9ynM8wwtMKdLP v4kTDbngzubqIv3kluzEHuzKSoaccc9zMFONwQJLNbEqz7K+MWTYCAYziNeKep/alpEuXFsEY+lW 5cKutVXBBuzJHmzot3iGfclujDEGCyzla02eo6MxZNJs3mIwTzC6BL/r71xg4EXRn7tL8FvasjN7 sAvNDTyTfmZXPjcGCyzlY2uepJUxZM5kBvE4L5RsMcHmjKalsRfFN6xVsnW3m7Az+7GHbZlBE9mH N43BAku52pf7fWyTMb/zLI/wQlEfKy3vfN9FKqK9ebqkv68um3MgB7Kq0WfKHI7iX8ZggaVcnME/ XGAwQ8bwHIN5rgxvBDVkBKvZAEXzPpuV4bdWsAUHsh/tbYDMqGQglxuDBZaq+3K8jHONISNG8jCP 8yGVZfr9x3OLjVBUW5ft4U0dNmE/DnIj6cy4nIFl+yaRBVYAGnAnhxlDBkzkUe7l7bJ+IVbwJb1s iqJ6hj3KfAS9OZKDWMWmyIDHOILZxmCBpSjNedRVr1JvCk/zCM8zr+xHsj+P2hxFVsmGfFr2o6jL 5vTjEFrYICn3KvsWbb08WWAFbDWecdWrVJvDSzzCY8xIyPG8W5YZQllzL0cm5EgashMHsh9NbZQU +4pdXRnLAktL68ULdDCGlFrI69zNk4m6t9yel22YEphPd0Yl6HhWYF+OYhu/+1NrNDvzjTFYYOnf evMcKxtDKo3lfm5leOKO6wUfR5fItZyZuGNqz+EcTzcbJ5UmshvvG4MFlgC24WlnR6TQbAZxCy8n 8s2e9fjET3+JzKQzvybwuCrYgn4cRjObKHWmsy9DjKH8HzGV2x48Z3mVOkM5kTYcxJCEvjh9oeVV yTTh1EQe10Le4kTacVRie6lqqhmD2c8Yys0v2XLrxx3UM4YUGccd3MX3iT7GrnxrryuhiXRieqKP cHX6c7SLOaTKPI7mfmMop7pGUFancIttkCJDuZBjeYmJCT/Oi9nExiqhxkxI+JyY33mZq/mIleni bXdqru77MpX3DKJ8/CiV00AuMYSUmMK/uI4vgzjWNvzoTpclNpZuJd5lsqZ6cCzHspJNlhKXcoEh lK/GVblK2yv4b2NIhaH8laN4ggmBHO9FbG+jlVgLfuCzII50IkO4ls9pRVebLQX6sBIvOMeuXJd5 lUM9buMoYwjeNO7jJj4P6pibM5qWNl3Jfc3aLAzqiNflJI6guU0XvDs5ngXGYIGVDQ24nwOMIXAj uIVbmBTccQ/gchuvLPZkcHDH3JxDOcsdK4P3NAe7S6EFVhY04Sn6GkPQXuZaBgc2HvGH+gx3x4Ay eY/NgzzuCvbgTB8rB+5F9mWmMVhgpVtTnvarKmBzeJgrAnsouKRjuc1GLJs+vB3ssa/OqRxHExsx WG+yO9OMwQIrzeXVYLY1hkCN42au57eAz6CCL1jThiybQewV9PGvQH/OoaMNGai32Y2pxmCBlU4t eY7NjCFIQ7mCx5gX+Fnsx2M2ZRlVsm4gS3nEq88BDGBDGzNI77JroracTzm3yillefWC5VWg9317 sTEPBV9ewQAbs8w3tOcFfw7zeJDebMVgX/0P0Oa8worGULoPvEqjFS+ykTEEZiHP8n+p2Zd+O16x SctenvRgVErOZX3O4VC3XArOp+wY9ESHgDiCVRpteN3yKjBzuJc12TM15RUMtFHLrj5np+hCfSSr cy2zbNbACuM3WNUYSsERrFJoyxDWNoaATOUuLuXnVJ3Tunzq5z0BZtIpZeMHK3Mqp9Papg3It2yf su+3RHIEq/ja84blVUAmcD7tOTN1Xz8XWF4lQhNOTdkZ/cpf6MzAYLaKEqzBq7Q3hmLzK7fYOvIy 3Y0hmEvFjVyVyheZu/Cds2USYiKdmJ7C82rKcZzPajZwIH5ke0YaQzE5glXs8up1y6tA/MxZdOIv KV0nZoDlVWK05phUntcMrqEHZ/OLTRyEzrzimmbF5QhWMbXjdboZQwDG849UT9Ztw480tpkTYwzd UrDoR5wG9Oe/fAAVhFFsk5q3WhPIEaxiXtResrwK4mJ3Fl24NNXvQp1heZUoHTg4xWc3l1voxomM taETrxMv+VC3eBzBKl559Zp70CfeT/wfdzA35WfZlFEuLpgwX7N2kJuF56Mhx/InL9+JN4ztfEGh OBzBKo6VGGJ5lXATuYAe3JT68gpOsrxKnF7smvpznMONdOVEL94JtyZDWMkYisERrGJoyRB6G0OC zeB6LmFyJs61Pj84lTWB3mTrjJxpM07lIlrY5An2GTvwuzEUmiNYhbcCL1peJdhcbqE7F2SkvIJ+ lleJtBVbZuRMp3Mp3biU2TZ6Yq3HS7QyhkJzBKvQmvIcWxlDQi3kMS5gRKY+4V+ypg2fSE+zd6bO twN/5hiXC0ms99iJacZQSI5gFVYznre8SqhKHmFNDspUeQX7WF4l1p4Z2+FhDCeyNo9QadMn0mY8 Q1NjsMBKqiY8TR9jSKQP2JqD+DZz532eTZ9YdRiQuXP+loPYlDdt/ETaiuctsQr7EVehNGIQfY0h gYZzAY9l8r55G16z+RNsHt0ZncnrzgH83VUCE+lF9mKOMRRGXSMoWJIPsIcxJM4k/sqRfJHRs/8n PewCCf/+fSGTZz6MfzKWzRwvSZxurMOjqV+jrWR3EipMjrdyrDEkbnzgTv7Mr5k9/3X51E94ws2g M79l9uxbMZCzaGg3SJh76W+JVag7KNXeFZxqCAkzmD25h5kZTuAq1rUbJFwDpvNGZs9+NkO4h5VY 1xuBRFmPFXnOGGrPbl0I/81fDSFRhnIG72Q8gy585yvxAfidTszIeAZ9uJYN7AqJ8l/8nyHUliNY tXcKlxtCgkzkQk7I5NThpf0fm9kZAtCEX/gg4xmM5lZG0McZWQmyPVN5zxhqxxGs2jqCu13sIjEW cj/nZHhOy3+syCgvV4EYQzfmGQOt+AunetOfGJUcy53GUBuWBrWzJ3eaYWK8wQYcaXkFwFmWV8Ho wEGGAEziTHq7RlZi1OFW9jeG2kWomtuW52hkDInwMxdyr2tEL9KUUaxoDMH4gvXsu0vctl7v/pkJ MZtdXUuv5hx9qbn1ecLyKhHmcS09ucdL1GInWl4FZR12NYTFBtGLv7o1dCI04ik2MoaacgSrpnrw Jm2NIQFe52S+NoYl1OcHRwAC8wbbGMJSunMDOxlDAvzGNgwzhppwBKtm2vOy5VUCTOBItrO8Wsbh llfB2ZotDGEpP7ALR2V4meDkWInnaWcMFlil0oLBdDCGMqvkXtZy3tVysriFcBq4Lffyn/B7WJ1r XVO87DrwAq2MoSZfxspXA55xU+ey+46TecUYIuzNk4YQZDmxDl8ZQ4Q+3MRaxlBmr7Ozm0DnyzVH 8i9J72RfYyirWVzM4fxgEJHucHQ10G+WxjxlDBFGcyu/04cGRlFGnenB4z4vyPdDrfxcyTmGUFav cjLfGkOMrXndEAI1j+7uQBCrKzewizGU1RU+yM6PI1j5OcX9mcpqMmdyBr8bRKwb6WEIwX4bV/Ki McSYxP0MYzuaGEXZbMEUt8/JhyNY+TiQh3wtoIwGcyI/G0MV1uEzP9MBm0Enbx+q1IYbOMAYymYh h/CIMeTKciF3W3OPeZXNBA5iT8uragy0vApaU042hGq+Bw5kL78Hylgx3McOxpArv45ztSZv+aJq 2TzCKe4xWK0ODKe+MQTtdzoxwxiq0ZJLOcEYymQKW/O5MeRWjyoXq/Gs5VWZjGM/DrK8ysF5llfB W5H+hlCtyZzI7ow1iLJYgWd9Uzk3jmDl1qHeYF1jKINK7uIcJhtETpfmUTQ1huCNZHXmG0MOWnIV /b2GlcVnbM1UY6iOI1jVq8fDlldl8RO7cYzlVY7OsLxKhS4cZAg5mcwx7OZ8rLJYj4epZwzVsfqv 3g2cYghl8Agn+0ZVzpryIysZQyp8zvou6JizFbiOfsZQBrdxvCFUzRGs6pxpeVUGUziRgyyv8nC8 5VVqrMvOhpDHd8WRfleUxXGcbghVcwSrarswyIHQknuJY5zAmpf6fE8nY0iN19jOEPKyCrexuzGU 2AL2ZZAxxHMEqypr8pDlVYnN4gJ2sbzK02GWV6myLZsbQl7GsScnusBFidXlfucnV8URrHgr8T5d jaGkPuBI9xmswaf4c9Y2hlR5gv0MIW9duZs+xlBSo9iU8cYQzRGsOI0ZbHlVUvP5b7a0vKqBPS2v Umcf1jSEvI1gO/7iIhcl1YknaWQM0dzsOW5M4C52NYYSGs2e3MdCg6iB2+loCKn7BmrM08aQt4W8 zgtsT2ujKJn2rMGjxhDFEaxof+UwQyihx1mft42hRrZiS0NIoX6WzTX0ARvyoDGU0IH8jyFEcQQr ykFc6+y0kpnFeZzDbIOooRtZ3RBS+d28kBeNoUbm8Bgj2YkGRlEi2zDc/QmXZxmxvC142WfKJfMZ h/CNMdRYL750HDqlZtDJ9Z1qYU0e9B23kpnNDrxjDEvzq3lZq/Go5VXJ3MsWlle1cqGf4dRqykmG UAvD2JRrXRO/RBrxuFtAL8sRrGU7yRtsbAwl8RvHuEhdLXVgOPWNIbUm0JlZxlAre3EHKxpDSXxC H2Yaw39497u0WyyvSuRN1re8qrUBllep1ob+hlBLT7M+bxlDSWzAPw1hSU5yX9I5nGcIJVDJdRzB ZIOopdbc4zTelFuTG1y8pJamci+VbO3zmhJYjym8ZwwWWMvbgbsd0SvJ110/rvKiUQAD2ckQUq4V X/OlMdTSQl7jE3ahsVEU3Y58wA/G8Adr+n/rzIesZAxF9wkHMtwYCqAJo+yxGfAZGzhRuyA68TCb GEPRTWQTv+P/4IjNH5rxtBerEriXPn70CuR4e2wmrOc4ZYGMYhuuNYaia83jNDUGC6x/q8PtrGMM RTab4znSd0wKpD5nG0JGDDSCgn0HnUk/ZhhEka3LPT4ds8D6t4s4yBCK7Ds24TZjKJhD6WQIGbEd mxtCwdzHxgwzhiLbz9sCcJI7wO7cYrVdZI+zG2OMoWDqcB9tjCEzWvGwIRTMb9xHL3oaRJFvCz50 srsjWKtznykUVSWXciDTDKKgNwVrG0KG7EMvQyigqezHBb7JXFR1echem/XSohlP0tLPQhFNYS+/ ygrO4fesfU+fYwgFv+3bl6kGUUQteCTrk92z/mjsHvr5OSii79nH+Q4Ft6lL+WXOPLr5kL3gevAk axpDET3EoVk+/WzPwTqNC/wEFNGz7OpFoQj+yRqGkLlv6vm8ZAwFNpF7nY1VVGszgY+ye/pZHsHa hDdo6CegSCq5jIt8NFgEvfjSWYMZNI2Obi9VlGvg+VzsJ6po5rEN72b15LPbrVrzL8uropnOgc68 KpILvBhkUnNONoSi3Apeyt5MMYgiqc9D2V0SOasjWBU8wy72/SIZyV7un1Yk7RnuBs8ZNYHOzDKG olibQXQ2hiJ5hr2yebud1Xvh/7K8Kpp32dzyqmgGWF5lVhuOMoQi+ZKNeMMYimR3LszmiWdzBGt7 XnSJ1SL5F0d7l100rRlFM2PIrBGswXxjKJKG3MKRxlAUC9mVF7N32lkcwWrPQ5ZXRVHJXznU8qqI Tre8yrSu7G8IRTOH/s4cLVqlcS/tsnfa2RvBqs8r9LG/F8FsjuUBYyiiJvzIysaQaZ+xAZXGUEQH cDdNjKEI3mMb5matrsyayy2viuIXtrG8KrLjLK8ybz12NISiepTtGWcMRbAZf8/aKWdtBOsAHrGf F8Gn7OWSokVWjx/oZAyZ9wo7GEKRdeRp1jOGgqvkAB7P0glnawSrM7fax4tgEFtZXhXdIZZXArZn M0MostH0YbAxFFwdbsvWt1iWCqx63O/GzkVwB/sx3RiK/tV0riEIwJ5QAtPZh38aQ8G14mHqZ+d0 s/Q23d+yve1kUVTyv5zjezclsDvnGIIA6Mkj/GYMRf9ue4bJ7Jzp7eSKoR0VvGKBlTbbcrNbjBTY fE7mKmMoidt9QKhF6tCAQcZQAu8zkj1c1KfA+vAOI7LyUc2GlfmMVe3ZBTWdg3jOGEpiU94zBC02 h678bAwlsQOP08IYCmo86zE+CyeajTGdOtxueVVg49jG8qpkLjICLaEhZxpCibxMH34yhoJqy53Z GNzJxgjWAC63TxfUD+zKD8ZQIj35ysfbWspUOjHZGEqkM8/R0xgK6myuTv9JZuFruzd/szcX1Hts bnlVQhdYXmkZLTjJEErmR7bgTWMoqMvYNP0nmf4RrBYMpbu9uYAGcbD7DZZQe4bTwBi0jPF08XNY Qo15mD2MoYC+Z8O0L/CT/jvjGyyvCuoB9vdrvaTOsbxShLYcaQglNIt9uMsYCqgHN6T9FNM+gtWf O+3HBXQjp7vqVUm1ZhTNjEERRrA6C4yhpNfLqzjLGAroSO5N8+mle4WP7jzl3X8B/T/Oo9IYSmoA OxuCIrXiS4YZQ0m9QD22NoaC6cu/mJTmijy96vGmu3YVTCXnc4UxlFgTfmRlY1CMT9nQW56SO41r fO2kYN5h6/SOw6Z5BOtP9LP3FsgCTkj/8/IEOpEDDEGxVuGtrKyJnSAfMJI9LbEKpANz0vuGZnpH sDbgPR8PFshcDudRYyjD7c+3dDMGVWEIOxpCGezFv2hkDAUxny34MJ2nltYqvDH3WV4VyHR2s7wq i0Msr1SNvmxkCGXwNHumfYmBkqnHnWktVtP6iPBKVywpkCnsyhvGUBZ3u8GTqtWKRwyhDEbwBgfQ 0CAKoA1NeSGNJ5bOR4Q78FJmtrEursns6jbDZbIbzxiCqrWAXnxvDGXRmxdpbQwFUMluPJ++00rj I8KW3GF5VRCT2NnyqmwGGoFyUJcBhlAmQ+nLb8ZQAHW4LY2lahoLrBvpaH8tgF/Zjg+MoUw2cbUd 5egoHyWXzSf05VdjKIB2XGuBlXz7cah9tQAmsAOfGUPZXGgEylFDzjCEsvmMrfnZGArgcA5O2yml 7VHaanzhM/ECGEdfvjKGslmDYa6zo5xNpROTjaGMn9eXaWcMtTaZdRmTphNK15d4Sp/jltwYtra8 KquBllfKQwtONIQy+pY+jDSGWmvJ7eka9EnXCNZJ/NM+Wmuj2M4vi7JqxwhXcYtU6esrMcbTmdnG UEZdeJVOxlBrJ3NTek4mTffJnbjM3llrY9ne8qrMzrG8ivEEXxpCpLZuDFZmI9maH42h1q6ga3pO pk6KzuQ5drZ31vo+eFu+MYayasUomhtDpC3owd3GEGk4a6R309xAdOd1VjOGWnqFvmnZwjw9I1jH Wl7V2gS2t7wqu1Mtr2K8yrs8yCiDiNSNfQ2hzH5gO34xhlranqPTcippGcFajS9pZc+slV/Z3gcw ZdeIkaxiDJF24QXgTK42ikgfsbEhlF1PXqOtMdTKFNZJx9uEaRnButHyqpYms6vlVQIca3kV43Ne BOBW186OsRE7GELZfcNO/G4MtbJCWia6p6PAOoq97ZO1vGPYiaHGUHZ1OdsQYlyyaF7GTG4wjBhu r5SMW4G+TDSGWtktHS9tpOER4ap86epXtTKVnXjfGBLgMO43hEgjWZ35i/53a0bRzEgibeSNUiJs you0MIZamMza/BT6SaRhBOuflle1Mp1dLa8Swm1741yxuLyCidxpIDHON4JEeJ/dmW4MtdCS68I/ ifBHsLznr5257MULxpAIu/CcIUSaQGdmLfF/d2A49Y0lwgJ68b0xJML2PEMjY6iFQ3ko7BMIfQRr Jf5hL6zV1/ERlleJ4QyaONcuVV7BGP5lKJHqco4hJMQrHLLEuKvyd13o72OGPoL1CAfYC2uskuO5 3RgSYmM+MIRIM+i03HtZvfjS/RojzaGLazElRj/udnunWniYg8O+3wnZvvzVHlgL57h3Y4JcTy9D iLmPfWq5f/cbm7C60USox1xeNoaE+JxpLoFdC2vxKd+Ge/gh19bNGUZ7e2CN/ZW/GEJirMEwR2Qi zaM7oyP+/Va8YTiRptKRKcaQGP+PPxtCjf1Cr3B7c8gjWFewo72vxm70faNEuYwNDSHS3dwb+e9H syMdjSdCQybyjjEkxqu0ZDNjqKHmNAp3nnC4I1gb8V7gDzjL6X6OZKExJEY7RtDAGCJUsjbDYv7b XhGPDgUwji7MNoYEXWdvT8/+eiW3kC1CXUgo1IcS9bjZ8qrGBtHf8ipRzrK8ivFUbHkFg/jKgCKt whGGkKjbhBMZbAw1rlJupp4FVimd6QOVGnubg315OFFW4HhDiHF5lZetKwwoxnnO6EuUeRzkY9sa W4/TwzzwMB8RduQrt8qooR/Ygl+NIVH+xP8ZQqTX2bbK/16fH5yHFeMAHjOERFmRt+hpDDUyk7X4 MbzDDvMu5zrLqxr6hR0trxKmEacZQoxLqx0XuNqQYrhsbdL8zm6MM4YaaRLmFu8hFlgHsJf9rUam sXuIdwEpdzSrGEKkz3m+2j9zC78ZVKSN2c4QEmakOxTW2G7sa4FVfC28Z62heRzIJ8aQMG5tEu9S Kqv9MzNcLDeWY1jJ8zF7M9cYauQGVrDAKraLaWdPq4FKTnDXwQQ6kO6GEHO3/3BOf+4aZhhWpJ19 FSiBXuGYHG4ctLxV+d/w7p/DsjE3+XZMjfyZ6wwhge5mVUOI9F85rn0zi1XZxLgireBE9wT6goU+ vq3h9f9FxoZ0wGG9RViPj1jPXlYDN3GyISTQzjnMMsqm3+mU88hUB4ZT38giLKAnPxhDAt3i0iw1 8gkbsyCcww1rNOgky6saGeR7agnlLJk4+Tz4G5Pjw8TscYZfUp3CM4ZQAxtwYkiHG9II1op8y4r2 sLx9xRZMNYYE2pgPDCHSDDrxex5/fh0+C3rj+uKZTVd+MYYEas6bDhjUwCTWCGepoZBGsC61vKqB cexmeZVQFxhBjJvzKq/gC54ztEiuspZU09idn4whb61CWpY5nLu+3nzg9PYa3L9ux3vGkEir87U9 OtI8ujM6z7+zNa8bXKQpdGKKMST0qvYGTYwhTwvZPJSx/1C+4Cu4wYtR3io5xvIqsdwtLs79eZdX 8IY7vcVwp8vkGspRLtmQ5moglGUajvUtuBr4b240hIRahTtC3SG+6LcF/Wo0x2IihxhepLW4PqQ3 rzJlGFSz36aWtxqj+DSMWjAErbjYPpW3h/mbISTWOTQyhEhP81WN/t5TNfx76deOIwwhsf6X+wwh b5fQMoTDDGME63KXZcvbO+zDfGNIqBbcZ4EV41jG1PBvzmJv44vUkxt9FJVYz7E9HYwhL01pHMIa giFMcl+bT3yYkqcf2ZQJxpBYFzomG+MNtqnx363PD3Q0wkj78YQhJNZKvEc3Y8jLfHrzedIPMvmP COtwo+VVnqazp+VVgjXkdEOIcWkt/u48rjHA2JJeyfUb+zDdGPJSL4RPe/ILrMPYyr6Ul0qO4Utj SLCj3X8wRm3Xs8p3/azs2Nip1In2Jf18iJunbTk46YeY9DlYzXmK5vakvPyN6w0h0Z+5+10yN8a5 tRz0n0dztjbGSKtwvyEk2DfUt+/maTNuZW6SDzDpI1gXspq9KC8v8BdDSLQD6GEIkQqxp+DVeexh mC27sKEhJNp/M9gQ8tKe85N9gBUJj+9M+1BevuVgV7xJuPOMIMblzKv1z/iduwwyxgAjSLSFHMYw Y8izTyf6tZZkv0V4P4fZg/Iwjc38gCbcjrxoCDGlUaeCjD514Ttfi4m0gDUYbgyJtgbvs4Ix5OEe jkruwSV5BGsTDrX3eP+TMgONIMa1BXq4N5JHDDNSXc42hIT7liNZaAx56MfGyT24JI9gveH7g3n5 r5B2Gc+ojfjQECLNoDO/FehnrcunAW1jX0qz6cI4Y0i4/3EebV7eoU9S38BM7gjWAZZXeXnSjXEC 4PhVnFsLVl7B57xgoJEacaohJN7/Ogably3YJ6mHltT7vAZ86btWefiOjZlqDAnXjW+D2V69tObR g1EF/Hnb8qqhRppEJ6YZQ8I14wN6GUPORrAmc5J4YEkdwTrd8ioPszjI8ioAAy2vYjxQ0PIKXuNd Q43UiuMNIfGmcxAzjSFnXTk5mQdWJ6FfAj/Q2l6Ts/7cbQiJ15Yf3eA5UiXrFnzvgX153GAj/UTX ZC/OKAAOc2HYPEyiRxJ3cUjmCNZfLK/ycLPlVRDOsbyKMagIWzs96Ru1MdpxuCEE4AFuN4ScteLP STysJI5gdWMYDewxOfqMzZllDInXglG0NIZIfXi7CD/1GC9QMb5lTZcCCEAj3nb1/ZzNY22+S9pB JXEE60rLq5xNZj/LqyCcYnkV462ilFdwL2MMN9Ia7GUIAZjNwUwxhhzV55LkHVTyCqxt2Nu+kqNK +jPCGALQkDMMIcalRbujvdZwY1xoBEH4gaOTusJTAu2bvM2yk1dg/d1+krPLeMoQgtCfVQ0h0tc8 W7Sf/c8kTntNhE3YxhCC8ARXGULOLk/apKekvTa+jxuS5uxdN1UIRF3uZ0VjiHQunxXtZ8+jRfLu aROire+oBeIVtqOTMeSkHR/zbZIOKFn1Xl0+Yy17SU4msT6jjSEIB/KwIUQaQzfmFfHnt+FHGhtz pA35xBCC0J5PvUHL0Zesz4LkHE6yHhH2s7zKUSVHW14F43wjiHFFUcsrmMBdhhzjXCMIxFiOciZW jtbmsCQdTpJGsBrwNV3tITm5ljMNIRB9eckQIk2kE9OL/Du68B31jDrCAtZguDEE4gZOMYSc/EjP 5Gybk6QRrJMtr3L0JRcYQjDc4Dn+NmF60X/HSB416Eh1OcsQglHMuYrp0jlJm0ElZwSrGT/Q1t6R gxlszNfGEIj1+TixW6qX10w68VsJfs96fGILxLRAZ341hkCsyYc0MYYc/Eq3pGxonpwRrHMsr3J0 puVVQC7y4h7j1pKUV/AZLxp2pCacbgjBGMY5hpCTlZOz6mBSvvxXYjgt7Bk5eJQDDSEYXfkucUuh JMM8ejCqRL9rO14x8EgT6ZyUe33l4EEOMYQcTKFbMtbAS8oI1oWWVzkZwwmGEJCBllexl4pRJftd r/KugUdqzXGGEJCT+dEQcrBCUma+JmMEqx3fu1pNDuazDe8YQzDaMtJ+HamSdfmyhL9vPx4z9Ehj 6cZcYwjGJrxFfWOo1mxWT8JepMkYwfqLl6Gc/K/lVVDOsl/HeKak5RU86bzFGO2TtW6QqvEBFxtC Dhrx5yQcRhJGsFbnK1eqycH79GG+MQSjBaNoaQyRtuKtEv/G47jV2CN9w1puuRWQerzDxsZQrfn0 4odyH0QSRrD+bHmVg5kcaXkVlJMsr2JvFd4q+e+8l58NPlJP9jCEoAqHQ0uwflwaCtE/lf8gyj8F tzs3JWzDnmQ6i+cNISANeZDmxhDpFL4r+e9cQF12NPpIXbnNEAIyiWnsZgzVWoeHyv0uYflLm/92 /CoHL/FPQwjKkaxmCJG+5pmy/N6bmGz4kTZlK0MIyg08ZwjVqsuF5T6EchdY3TnUflCtyRzrZp9B qWCAIcS4pEwzfqZ5kxLL7ZzCUslxTDSGavVj9WwXWP/l+FUOTk7CC6fKw37l/mAn1lgeKtvvvppZ NkCk3VnfEILyM6cZQrXqlnvX3vIWWN18RTgHD5bxkqSaOdcIYlxRxlWXJnC3DWCP9bqQIUfSo5y/ vrzLNNzFUfaAau9U1nEwODA7MMQQIk2kU1nfgOrKt46ZR5pPD1cJD0xLPqeDMVTjDo4t3y8v5whW dw639atRybGWV8FxRkuc68r8gvkIV3SPUc+thIMzmROcm1utI+mWzQLrT95L5lB9uzhDaNajryFE mskNZT+Gv3tJinEsKxtCYJ7nTkOo9tbhoiwWWN04wravxi+cZwjBuTAhO3wmz+38WvZj+MzHtzGa cKohBOccxhpCNY4q3zys8hVYjl9V7xQmGUJgurK/IUSaz1WJOI5LbYoYp9PMEAIzhZMMoRp1yzdp o1wFVjf62e7VuI8nDSE453njEOOhhEyifpn3bIxIrTnOEILzDA8YQjWOpGt5fnG5HmbcVs6Z/UEY z1rlXuZfeWvDjzQ2hgiVbMinCTmWA3jEBok0lm5lXEZDNbMSX9HGGKqpOI4vx68tzwhWO8evqnWa 5VWAzrK8ivFsYsoreLwMeyGGoT2HGEJwfuN0Q6jGUXTMToF1Dg1s8So9wqOGEJzmnGwIMZI082kh V9ggMS5IwP60ytfDLj9SjfqcUY5fW45HhK35kea2eBV+Zy3GG0NwzuMyQ4j0Ppsl6ngaMsLNuGPs xSBDCM4qfEVrY6jCDDqV/qlQOe5WTrO8qsYZllcBashZhhDj4oQdzxyusVFi/MkIAjSOsw2hSk05 pfS/tPQjWE340QXtqvQCuxhCgI7jVkOI9A1rsTBhx9SCUbS0aSJtxVuGEKBn2M0QqvA7nZhR2l9Z +hGs4yyvqjTL5f6CVOFWI7EuTVx5BVO5yYaJ4VZPYTqTWYZQhRU5ptS/stQjWPX5nk62dBUu5BJD CND+vpYQI6mv/rdlpO98RqpkXb40hgD9mf9nCFUYQzfmlfa+u7QOs7yq0ldcaQhBGmAEMa5K6MpK 47nHxom57T7fEIJ0GcMMoQodOLjUH6XS/rbPWdtWruLOcXteM4YAbccrhhBpIp2YntBj68p31LWJ IsyjB6OMIUBb8bp7oVbha9Yu5YSF0o5g7WV5VaXbLK8C5ayVODcktryCETxuA0Wq7ztpgXqTuwyh Cr1K+yJAaWvdt9nCFo71G734zRgCtB6feNcYaSad+TXBx7c+H9tyMS3XyW+jILXmG18kq8J7bF66 X1bKEaxtLK+qdLZfaIG6wIt0jDsSXV7Bp7xsI0Vq4tvMgZroDLoqbUaf0v2yUl4YXKWjKi+zI5XG EKAufEc9Y4iwgDUYnvBj7MtLNlTMhbpTgh/vqqqr+itsawyxBrNnqX5V6UawerGrLRtrDqdYXgXq PMurGA8lvryCIXxkQ0VqXfpVg1QQlZyc0Dd3k2F3eqavwDrTxyhVuJLvDCFIbehvCLG9OgTuHxln AA0MIUjfcLUhxKpTuo2fS1X0tGY0TW3ZGD/R08H4QP2Niwwh0rPsHsRx1uVrethckY7kXkMIUjO+ dTvzWDPpWJqNn0s1gnWS5VWVd4qWV2FqzsmGEOPSQI5zAVfYWDEuLMNmaiqE6S4dU4UmHFeaX1Sa Eaz6jKC9rRrjLbZ2/lWwpfHlhhDpAzYN5lgbMpJVbbJIezLYEIJUh9fY2hhi/ESXUmyaU5r7k4Ms r6q4fz7N8ipQ9Uv3LD84fw/oWOdwrQ0Ww3GQUFVyFguMIUY79i/FrylNgeVlKN4/+cwQAtWPDoYQ 6VueDup4b2SyjRapD1saQqA+4VZDiHVuWgqsLdnE1owxkb8YQqDqlOYjGqRLS7nfVwFM5RYbLYbL VobrTy5eHWujUqzoXooC6yzbMtYFpXmXQUWwD2saQqSfuD+4Y76K2TZcpD3dQTbgG/j/NoRyVibF L7A6sY8tGeMT7jCEYJ1nBLHFSnjLHI53QYIYdRhgCMG62YV0Y+1Pl/ALrNNc5zpGJac5CTFY25Zy y9CgTAp05selfhpjHEYnQwjUQs4xhBh1OSX0AqtZqdabCNAjvGMIwfLtqjg3MC3I4x7OEzZepPpO 8wjYmzxuCDGOo1lxf0Gx18E63RegY8xlLX4whkCty6du/RRpNl0YF+ixb8SHNmCkGXR2unSwujKM hsYQU6FcX8wfX9wRrDqcagvGuM7yKmAXWF7FuD3Y8go+4mUbMFLT4j9MUdGM4J+GEKPIeyQX9zKx A0NswUiT6OH7g8HqwnfOLIy0gDUYHvDx78iLNmKk3+nEDGMIVCu+Z0VjiKlSXineDy/uCJb7tMX5 X8urgJ1reRXj4aDLK3iJoTZipBU5xhACvqH/uyGUo0op5gjWqoyivu0XYQRrMscYAtWGH2lsDJF6 83HgZ3AwD9mMkcbQrRS7t6koGvAV3Y0hwnw681OxfngxR7BOsLyKcb7lVcBOt7yK8Xzw5RU8yvc2 ZKQOHGwIwZrLRYYQqV4xx2brFPGwR7rFc6T32MLtnYPVlFHOZoixHa+l4CxOckpwjC9Yz2+ugL3l vpKRxtKF+cX50cUbwdrT8ipSJQP8kgrYiZZXMT5MRXkFd/KLjRlpHXY1hICd65UnUnt2L9aPLl6B dZLtFulR3jaEYNXnTEOIkZZptHO4zsaM4fK6IXufxwwhUtEmuhfrEWE3vivJRtKhWcA6fG0MwTra 3SNjfMuaLEzJubRgNCvYpJG2dP+JgK3OV74BHaGSNYoz97JYRdAplleR7rS8ClgdzjWEGJelpryC qdxig8Y43wgC9h33GELkN/vxxfrBxdCYMc5UiTCbNRhtDMHax93qYvxEV+am6HxWYSSNbNbIe/11 +MoYgtWR79w2J8LvtGd24X9sccaZDrK8ivRPy6ugnWcEMa5OVXkF47jPRo25JR9gCAEbzc2GEGFF DizOx6UY3mNTW2w50+nGBGMI1jYpeUuu8KbQiSkpO6fV+dppDpHm0d0bxYCtzHCaG8Ny3mWLwv/Q YnyFrG95Fekqy6ug+QZVnOtTV17Bdz4OjlGfswwhYL9yrSFE2Jx1C/9DizGCdR2n2VrL+Z2uTDWG YK3DZ0XeGj1Us+nCuBSe18Z8YONGmkEn91IN2AqMoLUxLOeawt86FH4EqwGH2FIRLrG8CtpAy6sY d6ayvIIPedXGjdSUUwwhYFO43BAiHFH46f+Fv2i4WWqUX+jOTGMIVme+d/2YSAvoyQ8pPbeded4G jvQ7nZhhDMFqzPe0M4blHMijhf2BhR/BOtpWivC/lldBO9fyKsYjqS2v4IUUbF5dHCvS3xACNis1 +y4UVsG3fS70CFZ7fqSu7bSMMfRgjjEEfDkZRVNjiNQ71UXIITxoE0cayerF2iBXJdCQH9wteDkL 6cyYQv7AQo9g9be8ivB3y6ugnWl5FSPtYzxpHp+rnS4cZAgBm8NlhhBRDx1R2B9Yp8A/7Tu620rL +IWuxVgjViXSlB9ZyRgibZ/6ieAnc6PNHOlz1qfSGILViB+ch7Wc71mjkL26sCNY21heRbjY8ipo J1hexcjCe3Z38osNHWlddjGEgM3mCkNYTg/6FPLHFbbAcoL78sZxuyEEzGUV412SicvQ9TZ0DJfe DdtN/GwIxa1iCllgNWM/WyfiIjTLEAJ2OB0NIdJ3PJmJ87whhevUF8Y2xdhcRCW8ebjKEJZzUCE3 EipkgXUozWydZYznVkMImFvbxruchZk4zyl+hmO5/XnY/un2bctpWshtnwtZYPmAcHmXuf5V0PZk LUOINI77MnOuVzPXBo+0N2saQsBmOg+ruJVM4Qqs1dnMllnGb9xiCEE73whiXJWhVzd+ylAxmZ86 nGsIQbvRMazl9KFn8gqso92rbTmXMd0QArYVWxpCpKkZu3W4LCOPQ/PXzzmKQZvhPKzIXp2wAquO WzwvZxI3GULQfEsqTtYmfn/LUzZ6pPqcYQhBu5HJhrCMwws1XFSoAqsPnW2V5TruNEMIWC92M4RI c7guc+fs3m1xTmJFQwjYNAcCltOJzZNVYB1umyzD9XNCd5EPvWNkcfHND3nNho/UlJMMIWhXu5RQ sSqawlxC6vOLdzHL+CenGELAOjCc+sYQYQG9+D6D570Lz9n4kSbQ2Ut00G7mBENYym+sxrza/5jC jGDtYnm13EXIqYNhO8/yKsajmSyv4PmUb2xdc21coidwl7LAEJayEjsW4scUpsDyAeHyF6EfDCFg rb1kxLo8s2fumkFxBlDPEAI2gicMYRmHJaXAasoetoYXoVQ5w10JYrzE0Mye+8MMtwNE6lLI1a9V BpcawTL2KcQ1oBAF1n40tTW8CKVIE041BL+Il7OAf9gBYlzgKyFB+4hXDGEpTdkrGQWWDwi9CKXL CaxkCDFfwy9n+vxvZ5ydINK67GwIXrVSpQAPCWtfYK3MDrbEUj71XiBo9TnLEPwSjjSbG+wEMVyW N2wv+hLHMnamTfkLrEOc3riMy6g0hIAdSidDiDTcqbDc4PLBMbYt1OKMKhPffF9aPQ4of4HlA8Kl /cyjhhCwOpxnCDF8mRsmcasdIcYAIwjaw4w1hKXU+iFhbQusbmxiKyzl+kIsT6ay2YO1DSHSeO41 BOAq5hpCpH1Z0xACNo+bDWEpW9ClvAXWwb47spRZ3t8Gzpkk8YXFbEMAfuJ+Q4hUh3MMIWg3+xlf pkcfVN4C6wDbYCn38ZshBGwztjSESFO5xRAWuZSFhhDpSDoYQsB+9eZhGfuXs8Dqwga2wFLc4Dls fzKCGDcy2RAW+ZanDSFSfc4whKBd7StaS9m4dg8Ja1dguXrv0l7mc0MIWC92M4RIc7jWEJbwdyOI cSKtDCFgX/KqISxl3/IVWPub/lKuMYKgXVigvTnT5y5+MYQlfMDrhhCpOScbglexFKlVlVObKert Ge0U9yX8wBrOzQhYe4bTwBgiLKAX3xvDUnblWUOINIHOzDKGYFXwHd2MYbFKOjGm5mHW3AGWV0u5 zvIqaAMsr2I8bnm1nOf4xBAitaG/IQRsoTOJl1KHfWrzl2vuDbYy/cWm0Z6pxhCs1owqxO7pqbQx HxnCcg7nPkOINJLVmW8MwWrBWJobw2Kvs21N/2rNR7BW8YX2pdxreRW00y2vYgyxvIr0EMMNIVIX Z+cGbaq3DkvZilVLX2Dt74TgpdxmBAFrwqmGEONSI4i0gKsNIcaFTh8J2k1GsFSVtHc5Ciz9xzvO yAjacaxsCJE+5WVDiHEHvxpCpPXY0RAC9jnvGkIhqp2aFlgrOf/Kij816rvFR6yLXXgw1kyuM4QY bjkVNnclXNJ2Nb0Br2mBtS/1TH2xSTxmCAE7hE6GEGkEjxtCFW5gmiFE2p7NDCFgDzPREBary16l LbB8QLikO5hpCMFyi9p4l7LAEKow0bmXsQYYQcBmcbch1L7iqdlUxBb86ppBi1XSk++MIVh7MMgQ Io2ni0tGVsPlaeMsZG2+NoZgrcHXvqqw2FxWrsk6ATUbwdrFr5QlvGJ5FTRni8S52vKqWmN5wBBi ri2ODIfsW14zhMUasFPNPgQ1sad5L8EJ7iHblD6GEGmqPTsnl7qDQ4x+rGYIAXOi+5L2KFWBVZdd THuxcTxlCAG7yAhibxwmG0IOvmGwIURqyJmGELDH3eJ9CbtRtzQF1masZNqL3cE8QwhWz5rdl2TA HK4xhBxdbAQxTqalIQRrnhPdl7Aym5amwNrLrJdwjxEE7AL3I4jt1z8bQo7e501DiNSckw0hYHe6 Ct4SanAzXpO3BL5iTbNe5C0XXA2Yb4DFWUgvX93Iw+4+Jowxgc6+KhGwd9jcEBb5gnXz/Sv53793 tbxaqsJXuM61vIrxuOVVXp7hU0OI1IYjDcErXCqsQ5fiF1i+QfgfM3jEEILVmuMMIcaVRmBiBXK+ u34E7F8uor2E3YtfYDkp+D8ec6OMgJ1GM0OI9DLvGUKeHuJHQ4jUlf0MIVhTecIQal795FtgtWBr U17M4dNwNeE0Q4hxqRHkbT5XGUKMi1wR3KtcKmxL8+IWWDs7a2WxH3nDEIJ1bE33R0+9zxhiCDVw O78aQqT16GsIwXqFkYawSEN2LG6B5Qys/7jLFZyDVdclEGP93Veza2QmNxhCDLejClcl9xnCYnk+ JMxv6LYu41xkdHG3684IYwjUEdxrCJFGsAbzjaFGWjPKeX0xNndeX7C6MNyHvItMYNV8BlbyG8Ha 2PJqsdcsrwJ2rhHEuNzyqsYmcrsh+IlLnZFOhlmsDb3z+eP5FVg7me9iruAert1Y3xBi7s/cHKM2 rmCuIUTajx6G4NUuBfKqgiywama2L68GzBkhca521e1aGctDhhBzpRlgCMF6lNmGsEhe09zzebLa nN+pb76LOtyBhhCoTXjfECJNoyOTjaFWevGl+1tGmkNX97cM1uPsawgAzGVFpud+X5G7HSyvFnvQ CIJ1kRHEuMnyqta+5hlDiNSQMwzBK17wGrBt7n84nwJrR7NdZCrPGUKgerrUSIw5XG0IBfA3I4hx Mi0NIVCDmGII+VdCFlg18ZgzVYI10Ac4Me71AU5BvM9bhhCpBScaQqBm85QhLJLHXPTc52B1cq+t JQJ+yRCC1J7h7kUQaSFr87UxFMQeDDKESOPp4s1poHbxuc0S1dDo3P5g7nfzO5vqIhN41RACdY7l VYwnLa8K5hm+NIRIbelnCIEawnhDWCTnp3kVhf+RqfeQSzEGqhXHGUKMK4ygYCq53BBiDKSuIQRp Po8ZQrEKrLpsb6qL+D5FqE7Ldy/0zHiVdw2hoN8RowwhUlf2MwSvfIHrm2vllGuBtRGtTRWAEa6i FKhGnGIIMS41goKaxz8MIcZF7msXqLedh73IimxY2ALLB4T/9giVhhCkY1nFECJ9xouGUGC38psh RFrfpyGBquRRQ1gkxzcJKwr74zLA59BhqsvZhhDjEm8aCm4mNxhCDLeqCtXjRrBIjkNOuQ3WNmOi q7gDMIZOXoyCdBj3G0KkkazuaxtF0JpRNDOGSBsx1BACVMFo2hkDMJfWzMglsFxsaXm1uIK3vAqT W83GudzyqigmcochxDjfCIK0kCcMAYAGbJ5bRZqLrc1zcYGlEO3KBoYQaQJ3GUKRXME8Q4i0Pz0M wStg0HKqinIrsLYxTQDG87YhBMlZH3GudWXtohnDQ4YQqS7nGkKQ3mCCIeReFeVSYDVmI9ME4EkW GEKANvEWIcY0bjSEIvo7Cw0hUn9WNYQALeBpQwBgUxoXpsDanIamCeDz50BdaAQxbmaSIRTR1zxr CJEacoYhBMmHhP/uwZsUpsDy7v8Pk92DMEhrsJchRJrHtYZQZC7hGucUVjCEAA3xpiz3ysgCK3dP M9cQAnR+HjtuZsu9jDGEInvLeZsxWnCiIQR5W+aobM6VUfXrYDVkMo3MEtiHpwwhOO0YQQNjiFDJ 2gwzhqLby++NGOPpzGxjCM6+PiYEYBatmFP1H6n+3n4Ty6tFYb5kCAE62/IqxpOWVyUxiC8NIVJb +hlCgF7wzWMgp9f/qi+wfED4h5eZaQjBWYHjDCHG5UZQEpVcYQgxBlLXEIIz09nIi1S7FpYFVq6e MYIAneZE2hiv8a4hlMgDjDKESN3YxxC8Ggar2uqoujlY9ZlEU3MEOvslGZxGjGQVY4i0K88bQsmc xT8MIdKHubzsroTp6NUQgOm0rnq3hupGsDayvALgUztUgI6xvIrxOS8YQgndym+GEGljtjeE4Ix2 XiEAzarbgq26AstdCP/gi6nhqcvZhhDjEjctL6kZrpgfy22sQjTYCIBqHxJWV2D1MUEABhlBcA6i uyFEGskjhlBi1zLDECLtRG9DCI6zsP6wZe0KLJ+PA/zKh4YQnAFGEONK5htCif3OHYYQ4zwjCM67 /G4IwOa1KbC608YEgWfd5Dk4u7ChIcRc6u8yhDK4vOrpsBl2AD0MITALfEkGgDZ0qXmBtZn5AQ6H hsiZHXGu9mFVWYzhYUOIVJdzDMGrYqA2q3mBtanpAfNcwz04G7OtIUSawT8NoUwu9dWCGEezqiEE 5nknGlRfJVlgVe8dJhtCYC4wghg3O3eibL7gOUOI1JDTDCEwk3jfEKhmFlZVBVZj1jM94EUjCMwa rg8dYx7XGEIZXWoEMdxzITw+2QHYgMY1K7B6u00uAEOMIDDn5bAFVDbdx2hDKKM3eMcQIrXgeEOw wApQ/aoWG63qQuQUd4DJDDWEoKzC4YYQqZIrDaHMLjOCGOfSyBCC8gFTDKHqSqmqAssZWAAvu0SD X9Qp8RRfGUKZPW0beGOUEvN53RCqrpQcwaqODwjD4qOGeJcbQdlVcoUhxPDRfmh8SFhNpRTfoVej vcnZhYLjZNk4zv9JhvudBxfDl1O8OoaoI+3yL7C2MDfgR4YbQkB83Tueb7Alg29yxnN5lbB8yxhD oIqHhBX5/5VMcYmGsBzjgoUxXIMpOVyLLM7GbGcIQXEKTQ0LLLd5tvuExi034rmKeHLM4EZDiOEW V2HxISFUMQurTuy/n0yLzMe2kLb8Zu8JxsE8ZAiRxtDNrYYTZEVG0dQYIvXmY0MIxkqM99UEptKK hVH/IS6a7pZXwCeWV0E5zwhiXGZ5lSi/c5chxBhgBAH5jc8NgRZ0i/4PFbF3EYLXjCAgO9lrYy/n dxpCwlzpVrkxDqK7IQTEtbCAuNXcK/L74xnzphEExNkbca5hhiEkzEgeNoRIdTnbELxKpqPAipuD 9SI7Zj6ySlb2bZ9gbMwHhhBpBp191J1A6/Jp7Pdvts2mC+OMIRArM95+zAvsEvWvHcGK96XlVUAc v4pzi+VVIn3O84YQqZGr2QXkV74xhPweEXZkJRPjDSMIRjfXgI4xj6sNIaFc+jWO+zF4pQxLm+jV 3CvyqcYyxmfL4biAuoYQyY1Zkut1Ny+KsQLHGYJXyqBsYIFlt0mnthxhCJHcWjjZ3H47ztk0MIRg bhQEG+ZeYG1oWnzPz4YQiHNoZAiRBvGVISTYUwwzhEjtvGkKxlhGGoIjWPnxuXIoWnCiIcS4zAgS rZIrDSHG+a4Q7tUyjQXWSrQ3LR8QBuMUJ8TG9uG3DSHh7nWOXIw12MsQvFoGo1PUq4FRBZbrYVuT h6MhZxhCDN9SS755XGsIMS40Aq+WAVkvtwLLB4Twi0+VA9GfVQ0h0tc8ZwgBuMn19mJswjaGEITv GW8IUZVTVIG1rknxvhEEoS7nGkKMi6P3d1fCzOAmQ4jh8sFeMcOR4wjWWibFe0YQhP3pYQiRxvAv QwjEtcwyhEi7+jzFAisYa+ZSYNVjDZOyuwTifCOIcTnzDCEQE7jTEGIMMAKvmIHotfxy18tv0riG OwuxkFZMtb8k3o68aAiRJtKJ6cYQjC58Rz1jiLCANRhuDInXnEnupkH3Zfvq8iNYa9pX+MryKgjO 0IhzreVVUEbyiCFEqsvZhhCAaQ7MEDG9qqL6P5JBDneGYH22N4RIM7nBEAJzCZWGEOlYVjEEr5pB WLP6AssRLLtKGC6KeMAtgFv5zRAC87mPu2M04hRD8KoZBEew7Cop0ZX9DCHSPP5hCAFyWdg4p9Hc EBLPN+9zKLB8hxCmuQFrAAY6pTLGg4wyhAC9yruGEKkVxxtC4n3lvM/l3yNctsDqRsPMh/QRC/y0 JFxbjjSESJVcbgiBusIIYpxDA0NIuAV8lPkMGtG56gLLGVjwoREk3tk0MoRIg/nSEAL1hGPnMdpx mCEk3gdGwNpVF1jOwIKPjSDhWnCiIcRwJk+4KrnKEGIMjNx1REnyiREsO0RlgWU3Cc/JtDSESO/x tiEE7B7GGEKknuxpCF45E2+tqgssHxFO5wd7SaI15AxDiPE3IwjaPK41hBgXGUHCfe8096pHsHyH ED5noZ+URDuK1Qwh0tc8awiBu5nJhhBpE7Y2hERbyBeZz6Dn0u8RLl1gdfYdQmdgJVyF27/GusSb g+BN40ZDiOHWWEnnQ8LGdIwvsLrbQ/jUCBJtf3oYQqSxPGQIKXANswwh0m5sYAhePROuuwWWNXi4 zjWCGFcw1xBSYAJ3GYKffq+e6SuwumU+nHmuRJNoO7CpIUSayO2GkBKXM98QIh3iNSrRvmBe5jPo Fl9g+fBlGLP9lCSYszDiXOcbPKkxkscMIVJdzjSEBJvDt5nPwEeEVXCIM8nWo68hRJrJDYaQIn+n 0hAiHcvKhuAVNMQCq2LZfXQy6FM/IQl2EXUMIdJt/GoIKfIZLxlCpCacZgheQROs25JV1ZIFVkcX aXAdjwTryn6GEGm+W6ykjlsexTmNZoaQWJ9nPoFGtI8usJyBhVPcE+x86hlCpAcZZQgp8wrvGUKk 1hxnCIn1tREsOc19yQLLGViTGGfvSKi2HGkIkdwiOJ2uMIIY59LAEBLqJyZlPoMe0QWWL8B+5ecj sc6isSFEesZ5D6n0hKMBMdpzqCEk1jeZTyBmBMtHhD4gTKrmnGQIMZytk04LHZmMdcEy77/Lq2hy dI8usHxE6B1jUp1MS0OI9D5vGUJK3cvPhhCpJ3sYglfRkAqsCrpYe/vpSKSGLi8Y62IjSK05XGMI MS4yAq+iiS2w6ixfYLVzjotdI6H6sZohRPqGwYaQYv9ksiFE2pQ+hpBIzmRuwqrLF1iOX03lJz8d CVTBOYYQ4xIWGkKKTeMmQ4jhtlnJNIZpmc+g8/IFVofMhzLM7SkSaV96GUKksTxoCCl3NbMMIdLu rG8ICVTpe4R0XL7A6miB5WcjkQYYQYwrmWsIKTeeewwhUh1Htr2SJlSH5Qus9pkPxbcfkmh7NjOE SBO5zRAy4DLmG0KkQ+lkCBZYYRRYjmB95ycjgZxpEed6phtCBozgcUOIVM8xrET6PvMJ+Igwwg9+ MhJnPXY0hEgzud4QMuJiZ4fGOI6VDcEraeJEjGBlfZJ7JSP9ZCTOhf9ZUURLuZ1fDSEjPmOIIURq wqmGkDjDM39DsHi46t+Xr2aZf7VyrO9RJk4XvqOeMURYwBoMN4bM2MESK8ZEOvmoPHF+/s9KUBnV lJnwnxEsiwuHNZPnPMurGA9ZXmXKy7xvCJFac6whJI7fToteGvx3geUMLLtE0rShvyHEuNIIbHEB MIAGhpAwDld0XLrAcgTLAitpznTzphjP8okhZMxjvpsVO1ZwiCF4NU2YDhZY1txJ1pxTDCHGpUaQ OQu5whBiXLDEy1qywEoCR7DsEol2Ii0NIdIHvGEIGXQ3PxtCpF7sZgiJ4nDFMiNYzsGywEqS+pxh CDEuNoJMmsO1hhDjT0bg1TRRlhnByvpGOb8xxU9FghzpmGqMbxhkCBn1TyYbQqTN2NIQEmQikzKe wDIjWFlftcKKO0ncxjXepSw0hIyays2GEMMttbyiJsmqSxZYjWmR8ThG+YlIkH1Z0xAi/cQDhpBh /2C2IUTag7UNIUFGZ/z8V/jjHfg/CqxVMt8dxviJSJABRhDjKuYaQoaN5x5DiFSH8wzBK2qCrPyf Aqut3cFPRGJsx+aGEGkStxpCxl3KAkOIdCidDMEramK0tcCyOySRsyniXJ/5HUM1gscNIVJ9zjYE r6hJLLDa2B38RCTEuuxkCJFmc6MhiIupNIRIx7OSIXhFTV6B5QiW3SEpLqCOIUS6nXGGID7lFUOI 1IRTDSEhRmc+AQusxeYxwU9EInThQEOItIB/GIIAt0qKdwbNDCERxjEv4wm0scD6t59cWyghBlDP ECL9y7XatMhLDDWESK052hASckP4S8YTcARrMR8QJqXm9+sxjlv96j8uM4IY51HfELyqWmDZFbSs M/5YnE3LeY5PDEGLPcb3hhCpAwcbgldVCyy7gpbWlJMMIYazbrSkBVxpCDEuWrwBnLyqls/iOVgN WCHjUfzkpyEBTmJFQ4j0Aa8bgpZyV+bnuMTpxa6GkABjM37+ran3R4HVNvMvxvv6e/nV5wxDiPF3 I9Ay5nCtIcRwqeIkGJ/x869g5X8XWHYFlVs/OhpCpG952hC0nBuZYgiRtmJLQ/CqWnZt/yiwXP3W rlBudTjXEGJc5iIiijCVmw0hxvlGUHauLbnSHwVWS7uCn4Yy25s1DSHST9xnCIp0FbMNIdKerGUI ZeawRcs/CqxWGY9hLpP9NJTZeUYQ4x/MNQTFXMIsvqPVYYAhlNnEzK/l3soRLIAJbp5aZtuwhSFE msJthqBYl7DAECId7pzOMqvkt4wn0NIC648CS+XlWz9xrncis6ownCcNIVJ9zjIEr6wWWOXns+Ly WpddDCHSbK43BFXJJWjjnODrW15ZLbDsBlk3MPPrsMW5wxXaVI0PecUQIjXlZEMoq6yPYLVykrvd oNy6cJAhRFrAPwxB1XIMK86ZNDWEMnIEyxEsu0GZnUs9Q4j0MD8Ygqr1IkMNIdKKHG0IZeQIFhWQ +Z0If/OTUMavwP6GEOMKI1BOLjeCGOdT3xDK5teMn3/LPwqs1hmPYaKfhLJxED/OC3xsCMrJo451 xujgBIQymmSB5QgWLjNaNk05xRBiOLNGuVrAVYYQw1dovLKWSyuooFnmB1EtsMrlRFY0hEgf8qoh KGd38IshRFqHXQ3BK2tZNKRxhTsRWmCVSX3ONIQYlxiB8jDHFdNiuYyxV9ZyaVmR+UUa7Abl4mYW cb51fW7lyTX/42ztRlxlMinzCbSqoHnGI5jPDD8JZeB2rPEuZ6EhKC9TudUQYriVfHlMy/z3WIuK zL/FNdmtnstiL9YyhEjjuN8QlLcrmW0Ikfb2u6YsFmZ+VLVJBU0yX2CpHM43Ai+UsjAvgTqcawhe XS2w7AJZ4byIOD7qUU35aDnOEc739OpangKrsV1AJeebPXGcrKya8uWIOL6x7NW1HBo7gmWBVXqu TRPH1+1VGy7vEcc197y6lp4jWEz1U1Byrq4cxwUjVRsuUBunKScbQsk5yT3zbxG6SEOpuT9YHLc8 UW25xVKcs9z31Ktr6QusrI9gzfRTUGLnucN9DDftVW25SXicFelvCF5dS8o5WMzyU1Dir7ljDCHG 5UagWrvCCGKcSz1D8OpaQi7TYIFVYmc4UB/jRYYagmrtYcdBY3ThQEPw6lraAstHhCqdppxiCDGc PaNCWMA/DCHGBb5e49W1hHxEaIFVUsezkiFE+pBXDEEFcQfjDCHSuuxsCF5dS8ZHhD4iLKH6nGUI MRy/UqHMdjW1WC5x7NXVAssaO5UOo5MhRBruGtwqIPcDiLMtmxuCV9fSFVhZn4PlCFap1GGAIcS4 hAWGoIKZwm2GEOM8I7DAKl2BVd8uoJLYk7UNIdJ47jMEFdQ/mGsIkfZhTUMokawPX9SroK4Flkri fCOIcRWzDUEF9ZNFe4w6nGsIXl1Lom4FFRmPwEtbafRhS0OINJWbDUEFdxkLDSFSPzoYQkk4gpX5 tW0dSC8N396Jc6MTklUE3/K0IUSqzxmGUBLzMn7+dS2wnFxcCr3YzRAizeFaQ1BR/N0IYpzMioZQ AvMtsOraBVR0F2b+UXScu/jFEFQUH/C6IURqykmGUAJZH76wwHIEqwQ6cIghxPS+Kw1BRePytXHO yPwCRV5di69ePQssPwVFNyDzi4HE3uHwnSFIJdeG/vzTGLy6Fvf73REsC6xia80xhiApUc7L/Pzj 4nMOlgWWn4IiO4NmhiApUbpwgCF4dS0ql2lwknuRNeFUQ5CUOBdQxxAssIrIESxHsIrseFYyBEmJ sx47GYJXVwssu0Co6nO2IUhKJJc/Lq6sPx9yL0ILrKI6lE6GICmRtmNzQ/DqWjSOYFlgFVEdzjME SYk1wAi8uhazwJKKZXfWNgRJibUPvQxBxVJhjWknKBpnOEhK9hXwHEPw6lokC+owm4aZjqARc/wc FMWmvGcIkhJtDl352RiKdHWdlenzn+0IliNYxfInI5CUcA05yxCKJPOrbNZhKs0zHUELpvk5KIJe fIkz/CQl3TQ6MtkYimCFjOc6pcKVKvwUFMUFlleSAtCckw2hKDI/B8tHhD4iLIb2HGIIkoJwFo0N watrwc23wLLAKoYBNDAESUFow1GGUARZfz7kCJYFVhG05lhDkBSM85ws4tXVAssuEILTaWYIkoLR lf0NwatrgfmI0PuWgmvCqYYgKSgXUscQLLAKaoFvETqCVWjHsrIhSArKevQ1hAJzDlbmCywnYxf6 I+XWE5LC49ZehVbfAmthxiNo5KegoA6hsyFICs4ObGYIBZX1xS+cg0UTPwUFVIdzDUFSkPz28upa SAsqmGcXUMHsxvqGIClI+7G6IRSQI1gZ3+3aLlBYzmKQFKoKBhhCAWV9+GJmBTPtAiqQTdnKECQF 60hWMwSvrhZYdoHkucgIJAWsIWcagldXC6xC8RFhofRkD0OQFLSTaGkIXl0LVWBlfQ6WI1iFMpAK Q5AUtBacZAheXQtiliNYjmAVRnsOMwRJwTvLq4JX14LwEaEfpQI5xzXxJaVAW440BK+uhSmwfESo 2mvN8YYgKRXOd49ar64FMKuCGRmPoJmfggI41RwlpURX9jOEAmia8fN3BIsV/BQU4D7ldEOQlBoX UccQaq2lBdZMu4Bq6RhWNgRJqbE+OxiCV1cLLLtAudXlLEOQlCpu++XVtQAFlo8IVTuH0M0QJKVK XzYyBAusWnEdLEewau1cI5CUOucbgVfXWpnpW4QrOJmxVnZjA0OQlDr70cMQaqGCFhZYUzMeQT0X GKgVZypISqO6DDCEWlgh85unTalgUua7QUs/CTW2CVsbgqRUOopVDcEra41NqmCy3cBPQo1daASS UqohZxiCV9Yam1zBDObaDVQja7CXIUhKrVO8PnhlraHZzK4AptgNVCMDM/+MXVKateAEQ/DKWiOT oOKP/y/TWvlJqJF2HG4IklLtHBoZggVWDUz5o8CanPEY2vhJqOEXTwNDkJRqbelnCDVMLtsmWmBZ YNVUK443BEmpN5C6hlADWd+hdrKPCK2za+pUmhuCpNTrxr6G4JW1pgXW5IzH4AhW/hpxqiFIygSX U/bKmj8nuVtn19CxrGIIkjJhI3YwBK+seZr8R4GV9WUaHMHKV13ONgRJmeEYllfWGhZYkzLfDdzu OT8H0c0QJGXGjvQ2hLxUsJIFlnOwoL4rYeXJLVAlZct5RpCXFamX8QQmWWD9wYeE+diFDQ1BUqYc QA9D8Kqah8l/FFi/ZT4Ip7nnw9kIkrKmLucYggVWHn77o8Aab4HlpyFnG7OtIUjKnKNZ1RC8quZs /B8F1gQq7QrK0YVGICmDGnK6IeQs6yNYC/89gjU387Ow2vtpyNEa7G0IkjLpVFYwhBx1yPj5/878 PwosHxJ28NOQo/MX9RhJypoWnGAIXlVzMh4ssOwK+WjHEYYgKbPOoZEheFXNwQQLLLtCfs6igSFI yqxVvMn0qpoTR7AWW426fh6qtQLHG4KkTDvPaRI5qJv5Ny4tsBar73uEOTjNCZ6SMm519jWEaq2W +XXcLbCW4EPC6jTiNEOQlHkutewVtXrOwbI75OFoVjEESZm3MdsZglfUajiCZXfImdtESNIfHMPy ippHgTUh82G41GjVDqS7IUgSsLMb3ltg5V5gOYJld6jaeUYgSX4jekXNya//KbBmMTXjYXT0E+H9 miTlxDF9C6yqTGH2fwos+CXjcXTzE1EFZxxI0n84K9UralUWVVT/LrDGZDyOlWjpZyKG78xI0tKO zvxSmvFWpFXGExi1dIE1OvNdoqufihgXGIEkLcWVAeP5RGjM0gXWmMwH4hP1aKuzjyFI0jJOdW8L CywLLLtEbbjzliQtz91Z4zhcMXrpAstHhBZYUdw7XpKinUUDQ/BqGsERLGvuHJxDI0OQpAjtvAG1 wIq0aMiqzqL/swkzMh7IWJdGW04LRjvLQJJifMuaLDSGZfyc8TcsK2nKLPjPCNZMJmb+XqSxn4tl OIlTkuKtwd6GsIwmrJLxBH79o7xiiQnMWZ+FVceFGpbRkNMNQZKqcKERLKP74idjWbV4ylXF8v8q s3xuvDQX0pOkqm3MtobglXQpo5cvsHyPcHU/GUtwKwhJqp5biS2tR+YTGLt8geUIVi8/GUs4wI+J JFVrFzY0hCWsmfkERltg2S2qdp4RSFIOBhiBV9KqCywfEa6Z+al5/7EjvQ1BknJwkPOOFqtDz8xn EDHJfVTmQ2lBOz8dizirQJJyU5ezDWGRDjTPfAajli+wxv575YYMc2jzDxuxgyFIUo6OzfzaT/+2 VuYTmMEvyxdYlYywwPLTATh+JUn5aMSphuBVFIAfqFy+wIIfMh+M7xECdGNfQ5CkPJzqozGvostW UhZY1t7LGkhdQ5CkPLTieEPwKhpfYA3PfDA+PYa29DMEScrTOTQwBN8hXLKSWrLA+t57ECcqcg6N /I6QpDy143AzoFXmM/ARYaysD2+24AQ7gSTVwMClrqhZ5Ays2AJrNHMyH826GT//U2jp50OSamAN 9sp4Autlvg/M5qfoAmshIzMfzgaZPvuGnOF3pCTV0IUZP//1M98DhrMwusDyIWHWC6yjWNVvSEmq oU3Y2itopi1VRVlgLa1Xhqd413XLUkmqlSwv09yINSyw4gssF2qol+GlGvajh9+OklQLu2V4FGdd 6llgxRdYLtSQ5SHO8218SaqlczN75uvb+D4itItE6ctGNr4k1dIhdPPqaYG1fIH1I7MzH09WR7Dc 4FmSaq8uZ1lgZdQsxiz5f9ZZ5j9/lvmVoGbQYsnXLDPzwfh4ub4gScrfTDrza+bOuoIpNMt4y3/C hktHsrSvMv/RaJrJqd4XWV5JUkE04fQMnvXqmS+vlqugli2whvnZyOBDwq7sZ7NLUoGcmsFiwzWw lqugHMGym8D51LXZJalAWnN85s55fZu9uhEsCyzYJGPn25YjbXRJKqBzaJCxM97URq+uwBrue4Rs nLHF0s6isZ8LSSqg9hyWqfOtS+/Mt/ksfqy6wFrAd5kPqSlrZuhsW3CS34WSVGADl7u+ptk6TnHn axZUXWD5kBCyNdR5Ei1tcEkqsJ7s4VUzU5arnpYvsHyPMEtdpSFn2tySVAQXedXMlGHVF1iOYGWp qxzJaja3JBXlSrKVV80MyWEEywIL1qRFJs6zggE2tiQVSVa2IFuBnjZ2LgXWcGZlPqaKjLwPsR+r +5mQpCLZLSOrQ22SqQn90WYu+w5hVIHle4QAm2XiLM+1oSWpaOpk5FvWB4TwzfK7GEdVnT4kzMZi oztkpIyUpHI5hM5eMTMhonKKKrA+M6lMlB4DbWZJKqp6nGOBlQmf5lZgfWJSrEKXlJ/hevS1mSWp yI5l5ZSfYQ/a2sxRlVNUgfWxSQFbp/z8LqSOjSxJRdaEU71apl5l1LO/qALrd8aYVsrXL+nK/jax JJXA6SnfRmYrm5gfmZhbgeUYVvpr8vMytqG1JJVLa471aplykVOrKnL/oxnTI8VrnLfhKBtYkkpk AA1Se27tUz9j2QKrCNI77HkWjW1eSSpZEXJIas9tG5s3vwLLR4SQ3mHP5pxs40pSCV2Q2rXOfUCY Z4E1ll/NK7Xd5iRa2riSVEK92N0rZWpN4OfcCywfEgKsxUopPKuGnGXTSlKJ/SmVZ7Uya9i0cU/9 KvL745lShz4pPKt+KZ68L0lJtWkqryjbuKIisUNSjmBVJX3T3CsysW2DJCVPGrcncw0sC6wa2jZ1 Z7QPvWxWSSqD3Vk7defkO4QQuQ8hEDu4V4dJrJD50BaySsqm+7/D5n4WJKks7knZGoRtGOcjQqbS ksqo/xC3nncln/luABVsx8MpOp/tLK9iTKQz04xBKoiufEddY4hwKP/NqBSdzw6WV8Cn0eUVVazM 8b6pAX1TdTYDbdAYN1heSQUzgscNIVJ9zk7V+exokwLvxv2H+ALrPVMDdkrRuayXqrMppJlcZwhS AV0cd0+fecenavmfvjYoVQxHVeRfk2VKJ7qn5lwucDA3xh0urCsV1Ke8bAiRmnBqas6lJx1s0JoV WL8w2txSVKF34QAbM9ICrjYEqcAuNYIYZ9AsJWfiA0KAUdGruFddYPmQMF1d6LzYFxqy7iGGG4JU YEP4yBAiteaYlJyJDwirqZSqKrCc5g6wfSrehmlDf5syxpVGIBXBZUYQYwD1U3AW9VwDqzYFliNY AC3pnYKzOIPGNmWk51xUVyqKx/neECJ14JAUnMWmrpVZmwJrKHPMjjQ8JGzOKTZjDGeKSMWxwNHh WBdWee31yhiOOVXdoldU+Rc/M71UdKMTaWUzRvqA1w1BKpK7+MUQIvVit+DPwRlYAJ9WNRBVdRXt Q0KALWkZ9PHX5wwbMcbfjUAq4t39tYYQI/Rln1uzqY1INQtaVV1gOc0doB47B338/VyrJMa3PG0I UhHdyGRDiNSHLYM+/l19Lx2oZhjKEaxc7B7wsdfhXBswxqUsNASpiKZyiyHEON+rYtoLrOrW9h5H WxNkIm1YEOix7+uuYDF+oitzjUEqqrb8SCNjiFDJunwZ6LHXZTwr2oSMZ5Wq/nN1bzL4kBDCftp8 ns0X4yrLK6kEl6B7DSFSHQYEe+xbWl4B8E7V/7midn89M0IdDt2WzW28SJO41RCkErg02PH/YjuM ToEe+W42HlDtns3VFVi+xP6HPQI97oE2XYwbmGYIUgkM5wlDiFSfs7wiBu21qv9zdXOw6jGR5qYI dGZUcMe8Lp9W28LZNJsujDMGqSQ24kNDiDSDzvwW3FF3DPBqWAzTacX8qv5AdSNY832TcJEQh0Qv sLyKcbvllVQyH/GyIURqGuQuG3vZcAC8VXV5RQ7L9b9hikCIs7C6cKDNFmkB/zAEqYTckirOGTT1 ahioaquj6gssZ2H9YXuaBHbE57oQXIyHGW4IUgm9xFBDiLQixwR2xE3Y1mYrVIH1AbPMEWgc2Hru K9LfRotxhRFIJXa5EcQ4j/pBHe+urmsGwMzqZxZWX2DNcS2sRfYL6mjPCnDguTSe52NDkErsUb43 hEgdOMgrYYDerX4lxYocfowPCf+wJw2COdamnGyDxXA2iFR6C7jKEGIMDOh1pIbOwMq9MsqlwHKa +x9WYPtgjvVE19mN8WF1K5dIKoo7+cUQIq3DrsEca19WsMFyrYxyKbDeZY5ZAuEMjdbnTBsrxt+N QCqLOVxnCDHCWRLaB4T/7s0fFKbAmsVHpgnAvoG8l3cEHW2sSN/ylCFIZXIDUwwh0tZsEcRx1mVP GwuA93N5/a8ipx/lLKw/rESfAI6yDufaVDEuY6EhSGUylVsMIcb5QRzltqxsU+VeFVlg5SeE4dG9 WcuGivQT9xmCVEZXMdsQIu0VxPe2DwiLUGC9wzzzBGDfAN72OM9minF19a/VSiqicd7kxKjDgMQf YwX72FAAzM1tE8HcCqzpvGuiALRnk4QfYSjP8ktvCrcaglRml/uYPsbhiZ87uzmr2UwAvM2MwhVY 8KKJLrJ/wo9voE0Uwwm2Uvl9x5OGECn5b3/7gPDfXsrtj+X6wGsT13NfZDSdqUzs0a3DZwEtWVdK s+nqKjxSAmycywvumTSDTvye2KOrw0g62UgAbJTb3pq5jmANZaKZAtCRzRN8dAMtr2K4yKGUDB/y qiFEasopCT66rSyvFvmdT3L7g7kWWAt42VQXOTSxRxbanlal4zYdUnK4XVWcMxO8h+yhNs8iL+U6 j7Aijx+pPxyc2OVGzw9sV/bSeYQfDEFKiBfccD3GivRP6JHVcwZW/tVQ7gWW09z/bWV2SOhH82gb J8blRiD5iQzAuQm9gd+ZNjZO8QqsUXxnroskc6g0yYPL3i9L+g/HlON0SehEDx8Q/tvXjCl8geVD wv/Yj8aJO6amnGzDxHDGh5QszoqMl8RXlZqwtw2zSB5P8yywaqI5uyfumE5gJRsmku8sSclzJ+MM IdK67JK4Y9qTZjZM/pVQPgXWK26Ys1jShkvrc5aNEsPxKyl5ZnO9IcRI3nLRPiD8t7n57M2c31Dk m/Qx30VfDqsyOUHH0587bZRI39HLrTmkBFqBUaxgDJG25J0EHU1LxtHQRgHgNbbL/Q9X5PWjfZPw 3xqxb4KOJoRtQsvFnc+kZHJ30HjnJepo9re8WiyvqVIWWDXVL0HHsidr2SCRxnGfIUgJdTVzDSHS 3qzp1S6R8qqC8iuwPmS8+S6yLd0Scyzn2xwxrmK2IUgJ9ZM3QDHqcG5ijqULW9sgi0zIb8mf/Aqs hTxnwos/AEmp6rdiS5sj0lRuMQQpwS7zEX6MfnRMyJEc7Q63iw3Kr79W5PnjB5vwYkflnV5xDLQp YtzAFEOQEuxbnjKESPU5IxHHUcGRNkZNK6B8K9Nm/OZ0t8W2T8AKS734MiGFXtLMoQu/GIOUaBvz gSFEmkEnfi/7UfR1BcwlrikrMy2/6jQ/0/NZAyL1+ifgGC6yvIpxp+WVlHgf8pohRGrKSV7lEuWV /MoranBx9iHhfxxY9lVcOnCwzRDJrTikMLgUcJwzyr4pW4tELUhUbnlXP/kXWE+b8mKNOaDMR3Ae 9W2GSI/yvSFIAXjezdhjtOHoMh/BITSxGRZ7tvgF1ii+MufFytv9W5f945dclxuBFIgrjCDGAOpl +AqXLJ/zY/ELLBhk0ottSc8y/vYz3IAzxksMNQQpEA8z3BAideHAMv721dnUJqhN5VOTAstZWEsq 3yusTTjV+GM4q0MKxwL+YQgxLijjKlTHuALWEp7J/6/UJL4KfqGNaS8yjo7MK8tvPpOrjT/SR2xs CFJAGjGSVYwh0i68UJbf24DRtDX+RX5llfwXxa3JCNZCnjftxVZhn7L83vqcbfgxHL+SwjKbGwwh RrmWkt7P8moJz9Rkz4GaraHkQ8IlnViW33oonYw+0nCeMAQpMDfku8ZQZmzH5hm6siVVjaqemhVY L7gH+hK2Z42S/846nGfwMS5lgSFIgZnErYYQY0AZfmdPtjH4xebWbD37mhVYU3nFxJcodo4v+e/c g7UNPtJ47jUEKUBXeeMeY1/WLPnvPNEJ7ksYwtTSFVjwmIkv4ZiSL8bmBs/xX9KzDUEK0E/cbwgx N/HnlPg3NnaL50JUPDWtUVdkXJkXQEuWo7inhL9tM9418khT6cRkY5CCtAbD3Fs10jy6MaakV7S7 DH2x+azKbzX5izXtzL+76fNSSjsd8E8GHuNGyyspWN+6FVuM+pyR4ita0r1as/KKWtwt+JBwSVuw Qcl+Vy92M/BIc7jWEKSA/d0IYkueliX7XeuW6b3FpKpxtVPzAutx39VaynEl+00XOIge425+MQQp YB/whiFEas4pJftdJxn3EhbyVE3/am3eE3iDrcx+sWm0r9l7Bnlqz3AaGHeEBfTie2OQgrZbTbYk yYQJdGZWCX5PC8bS3LgXe51ta/pXazMW4kPCpe8vSrPv+ADLqxiPW15JwXuWTwwhUhv6l+T3HGt5 tZRHa/5XazOC1Y4xrpSxhJH0KPpj09aMoplRR9qYjwxBCt7h3GcIMdeY1Zlf5N9RwXd0M+rFFtKB n2seZs39xPumv4Qu7F7033G65VWMIZZXUio8xHBDiLnG7F/037GX5dVS3q15eUUtp0v7kHBpZxb5 5zfhVEOO4QbPUjos4GpDiHFh0Z8anWnIhatyatdYnRnhQ8KlrM9nRfzpZ3CNEUf6lA2pNAYpFZrw IysbQ6SdebGIP31tPveavoRKujCq5n+9diNYP/KxLbCU04v4s+uVfLuEcFxseSWlxkyuM4QYxd0m 7RzLq6V8WJvyilqvqORDwqUdxkpF+9mH0smAI43gcUOQUuQGphtCpO3ZrGg/e2UONeBCVji1LbAe duRgKY2LtsVAHcevYl3mordSqkzkVkOIMaBoP/kkGhnvEip5pLaX7dp6t4j1dIh+pgtzi/Bz92CQ 4UYaT5eSLL8nqXRcUjnOQtbm6yL83PqMpJ3xLuGt2i6mXvtNV+63FZayWpFepB1otDGutrySUmcs DxhCzFW7OE8zDrK8Wkate2DtR7BW5mfq2RJL+IwNCv7gdFPeM9hIU+nEZGOQUqcnX7nvaqQ5dK3N 6kwxPmYDo13CfNoxoba1cG39yhBbYinr0bfgP/MiY41xk+WVlErfMNgQIjUswmpVu1heLeP52pZX FOT+wIHcZRX6cV5P9jDUmDs5VwaT0upiI4hxMi0TftUKXwEqm0IUWI8zw7ZYyg5sWtCfd4ED5THu KcJAuaRkeJ83DSFSc04q6M/bmG0NdSkzCvFaWUVSDiRlzi3gz2rv2iQxFnKFIUgp5hZYcc6icUFv 4rW0JwuxElthRkZ8SLis/ehRwGLNl5WjPc53hiCl2LN8agiR2nJkwX7W6uxjoMsoyPoIhSmwnuc3 22MpdQs2htWa44wzxpVGIKVapZ/yWOcX7P3985yEsowCvbxXmFjn8agtsoz+rFqQn3MazQwz0ssu XSGl3kP8aAiRurJfQX5OW44wzGU8zLzkFFg+JFxew4Js/NyE04wyhrMzpPSbz1WGEOOigmzNfI4b 5BSroinUztl1GEFnW2UpU+nIlFr+jNO51iAjFWM5V0nJ04QfWdkYIu3ES7X8CS0YVfAlH0I3ii6F uboUagSrkgdtleU6bm03fq5bhOXk0uLvlldSJszkBkOIUfvVq06xvFrOfYW6utQp2CGtzjcF/Gnp 8BtdavWq5+HcZ4iRRrAG841ByoTWjHIuaozNeL8Wf7spI2hjiMvoxTeF+UGFe3fgO961XZaxUi3H sM41whiXW15JmTGR2w2hKFeJUy2vlvNmocorCjrmdBy32jbLGE9XZtbw7+7GMwYYaQKdmWUMUma0 Z7jrAUZaSE++r+HfdfwqyjHcWagfVcjVLx4qxMqnKdOWE2r8d90bKs7VlldSpozlIUOIuYYPqPHf PdnyajkzCrnoVGFnTd3FUbbPMsbRtUblwCa1erKeZtPoyGRjkDKlF1+6HGakOXSt0Z6sjRjOasa3 jDs4tpDVbyHdaessZxWOr9Hfu8joYtxkeSVlztdOmYjRkDNq9PdOtrwqdhVT2BGsOnxHd1toGb/Q Le8xrJ585d1apHl0Y4wxSJmzqXs3xJhKp7xvOx2/ivIdPQu5AFBhL+KV3GULLWdVjsn77wy0vIpx t+WVlEnv85YhRKrJmosnWl5FuLOw6ysWeuWqdoyirq20jDH0YE5eKY7wjZlIC1mbr41ByqQ9GGQI kcbTmdl5/PmGDKedsS1jAV0KewNf6HGSn2q9cH8adchz2tw5llcxnrS8kjLrGb40hEhtOTKvP3+C 5VWEFwr9fKTwa68fxL9sp+X8Qvec18NqxSiaG1mkLVzOVsqwI7nbECKNYHUW5Phnm/IDqxjZcg7g scL+wMLP9HmS32yn5azKaTn/2dMsr2K8anklZdqDjDKESF3ZL+c/e4blVYTfGVzoH1n4Amuu2z5H uoBWOf25RpxiWDEuNQIp0+bxD0OIcVGOT6Ra1mJp0jS7N6+Z0mUqsHDXqEitODunP3es9xYxPuNF Q5Ay7lafkcRYn+1z+nPn0dqwItxR+B9ZjALrMx/kRDqbttX+mbo5lmFZdElhX6CVFKCZ3GAIMXLZ Xm1lTjeoCG/zRRgFFvzT1orQjAuq/TMH082gIo0s5A5RkoJ1rbvextiR3tX+mf9yjm/pqpbiFFgP 86vtFeEUulTzJ3w2Hudy5huCJCYW42FOSpxfzX/vxAmGFOG3Qr8/WMwCa46v0kZqwJ+q/O+7soEh RZrgHgGSFrmCeYYQaX96VPnf/4eGhhThjryWaS1zgQU3sdA2i9CfXlX814EGFOPavHdzlJRWY3jI ECLV5dwq/uvq9DOiCJXcVpwfXKwCa7grusd0/7/G/rdN2MaAIs3gJkOQtNjfvYWPvYlfNfa//Y16 BhThBb4Pq8DCS2KMA9ky5r9caDixfel3Q5C02Nc8ZwiRGnJGzH/ZjP2NJ1LRXsurU7RDrstwOtly Ed5ji4gFB9ZgWBHL3ZDNozujjUHSErbiDUOINJWOTIm41r8Ze3OfbWPokvMmQ3kq3iV9gQuOxt5H HBDxb8+3vIpxr+WVpGW8yduGEKkFJ0b824Msr2LcUqzyqpgjWLAKo6lv60UYSa9lFuVvxwgaGEyE StZmmDFIWsZePGUIkcbTeZm34howzDUWI82nEz8X64cXc9RknN0/RhdOXebfnG15FeNJyytJEQbx pSFEassRy/ybMy2vYjxRvPKquCNYsD0v236RJtN9iYnbKzCKFQwl0hZuvCQp0lGujxdjOGss8eCr Nd+7/2BslfJq8X54cef9vOLoQ4yW/HmJ/+s0y6sYr1leSYrxAKMMIVI39lni//qL5VWMb3itmD++ 2BOr3ZUwzqmLV9xtxGnGEeNSI5AUYx5XG0KMgUsUWycaR4zrI97oL6A6RT78Joyxdo7x2KK3CU9x d/gYn7N+cbu/pKA15UdWMoZIO/AKAE+yt2FEmkyH4m4cXuwRrJluyxlrf/oAdTnbKGJcanklqQoz uNEQYvwxhrWN5VWs24pbXhV/BAs6Mtzl+WN8wsYcxAMGEWkkqzPfGCRVYUVG0dQYIm3EpwxlPYOI NJ9uxV5jsW7RT2IK67CWbRlpVX7h9Cp2jsq2/+J9Q5BUpVmswqbGEGkF2nK0McR4pPiLodcpwWls 4Yq7sabR3BAi/U4nZhiDpGp0YLhLWkdawDRaGkOMzXmv2L+iFNuzvONIRCzLqzhXW15JysEYHjaE SHUtr2J9WPzyihLtf3eNram8zHCBD0k58nUY5evKUvyS0hRYjzDG9lQebl5inXtJqsoXPGcIysNP PJ6eAmu+r9IqD/Mc85SUB5ckVj6uZV4pfk2dEp1OK8b4Kq1ydCfHGIKkPLzNFoagnMykY2mekVSU 6IQmca+tqpxUlubpuKQUucwIlPMtfImmoNQp2Sn1ZFgJf5vC9ST7GoKkPK9lX7jionKwkDX5tjS/ qqJkJ/UNz9qyysHlRiApT5VcYQjKwTOlKq8o6ZjS1rxu26oab7CNIUjKW31+oKMxqBp9Srf0eUUJ T+sNV3RXtXwbSFJN+PaxElaHlHZW1F48ZfuqCl+wnksGSqqRpoxiRWNQFXYv5WSlipKe2iC+tH1V BVdkllRT7gCh6m7hS7okbWkLrEonMKsK7ikmqTbcw1QJuoWvKPHpPcgo21gxLivN6rqSUup37jIE xRjJv0r7C0tdYM3jKltZMV+NdxqCpFq5kvmGoGT0jYqSn+Jt/Go7K8I1Du5LqqWRTjRQpAncUepf WfoCaybX2dJajtNTJRWCr8ooyrXMSn+BBdczzbbWMm7hN0OQVGuf87whaBnTuLH0v7QcBdYkbrG1 tZR5XG0IkgrC5Yq1rJuYVPpfWp7tl9sxgga2uBa7m/6GIKlA3mFzQ9Bic+jKz6X/tRVlOdmfuMcW 12Ju0yqpkFxxUUu6pxzlVblGsKAT3zmGpUWeZm9DkFTAK9uXrGkMAmAePRlRjl9cUaYTHsV9troW ucwIJBVQJVcagha5uzzlVflGsKAr31LPlhdvsrUhSCqo+vxAR2NQ+cavyjeCBSO415YXvvEjqRiX 1WsNQcA95SqvyjmCBd34xjGszPuatVloDJIKrCmjWNEYMl9o9yxfgVVRxhMf7jwscbHllaQimMFN hpB5ZRy/Ku8IlmNYGkM35hmDpCJow480NoYMW0Avvi/fr68o68k7hpV1V1heSSqSCdxpCJl2dznL q3KPYDmGlW0T6cR0Y5BUJF34zitMZpV5/KrcI1gwnPvtBZl1reWVpCIaySOGkFllHr8q/wiWY1jZ NZNO/GYMkopoXT5NwHVOpVf28avyj2DBcB6wJ2TSrZZXkorsc140hEy6p9zlFYmo7HswzDGszJlH D0YZg6Qi245XDCGDV5heDC/3QVQkIIjvucPekDkPWl5JKoFXedcQMueO8pdXJOTZ9Gp8TxN7RIZU si5fGoOkEtiPxwwhU2axOmPLfxgViQjjZ26wR2TKYMsrSSXyJMMMIVOuTUJ5RWLermjFcFrZKzKj D28bgqQSOZbbDCEzJtONiUk4kIqEBDKJq+wVmfGe5ZWkErqHMYaQGZclo7yCuomJZCjH0MyekQkn 850hSCqZhdRlJ2PIhAkcwdxkHEpFYkKZwcX2jEz4mmcNQVJJ3cxkQ8iEvzItKYdSkaBYbmKEfSMD LmGhIUgqqWncaAgZ8GOSZtslqcCax1/tHak3locMQVLJXcMsQ0i9Pyfl8WDSCiy4j8/sHyl3RZK6 v6TMmMDdhpByX/Bgkg4naZtg7s2T9pEUm0gnphuDpDLoyrduy5ZqezI4SYdTkbB4nuId+0iKXWd5 JalMRriie6q9zzPJOqA6iYtoa163n6TUTDrzqzFIKpP1+CSBVz0Vqnp4M1kHVJG4iN7gCftJSt1m eSWpjD7jJUNIqceSVl6RyFq+K8NoaG9Jnfl0Z5QxSCqj7XnZEFJoLmvzfdIOqiKBQY3gn/aWFHrQ 8kpSmb3Ce4aQQtcnr7wioU+jW/E9K9pjUqWSDfnUGCSV2f48aggpM4ke/J68w6pIaFh/s8ekzLOW V5IS4Am+NoSU+UsSyysS+z5FA76iu70mRbZO3gRESZl0PLcYQop8x9rMS+KBVSQ0sLkMtNekyPuW V5IS4h5+NoQUOT+Z5VVyCyx4nDfsN6lxsRFISog5XGMIqfEaTyX10JK85NoGfJTgAlC5+4a1WGgM khKiOaNpaQwpsJBNGJrUg0tyAfMJD9h7UuESyytJCTKNmwwhFe5JbnlFwjcNaMd3NLEHBW4s3Zhr DJISpC0jaWwMgZvFGoxJ7uEl+xHcT/zDHhS8Ky2vJCXMeO4xhOBdluTyisRve9mMb2hnLwrYRDox 3RgkJUxXvqOuMQRsDL2YkeQDTPok8umcby8K2vWWV5ISaASPGULQBiS7vEr+CBbU4VW2sScFaiad +dUYJCXQenwSwDVQ0V5hh6QfYvKXQajk1KQuIqZq3W55JSmhPmOIIQRqPmcl/yBDeAL9Kyuxqf0p QAs4gknGICmhfuZIQwjSNdyb/IMMY3i0Bd+yij0qOPdzhCFISrD3vH0P0Hh6Mjn5hxnGOxRzmMxe 9qng9GecIUhKsCkcaAjBOY33QzjMUCb4VfA2m9mrgvIsuxuCpIRfW76hhzEE5V22pDKMzhWGhZzm diuBudQIJCX+2nKFIQTWYmeFUV4R0GbKQ7ndnhWQD3jDECQl3t38bAgBuYUPQjnUkNaxfZvj3Jkw GKfyrSFISrwF1KevMQRiIvsxM5SDrQgq2P+xdwXiGwYZgqQg/DOEN9IEwJ/5LZyDrQgq2pv4xP4V hEudMScpEFO52RCC8DG3hHS4oW0TsDHvuj1n4v1EV+Yag6RAtOVHGhlDwi1kS94L6YArAgv4Q260 lyXeVZZXkgIynnsMIfGuDau8IsCNLpszjPb2tASbRCemGYOkgHTlO5+OJNov9GJKWIdcEVzI00LY 4jHTbrC8khSYETxhCMdBwisAAB/TSURBVIl2SmjlVYgjWABPsre9LaFm08UNciQFZ30+DvSKmAXP sEd4B10RZNSnM93+llC3W15JCtCnvGIICTWNk0I87DCfOU9lNjvb5xJoAYczyRgkBegX+hlCIg3k pRAPO9QB0bp8wIb2usR5gMMNQVKgPqK3ISTOUDZlQYgHXhFo4As4MczAU85tUyWF6zIj8GpvgQUf cb09L2Gec6V9SQF7jO8NIWGuYWiohx7yOxOuiJU02/K6IUgK2IncZAgJMoY1w32prSLg4Kdxmr0v QT60vJIUuLv4xRAS5NSQ1wwIe+Xab1mTteyBCXE63xiCpKAtoAE7GENCPMjfQz780JdVW4mvaGMv TEixu9AYJAWuBaNZwRgS4DfWYkLIJ1ARfAOcaS9MhMssrySlwFRuNoREOCXs8opUbAzwOPvaE8vs J7oy1xgkpUBbfqSRMZT9yr5/6KdQkYJmOIWJ9sUy+4fllaSUGM99hlBmv3NK+CeRjq0t+3GP/bGM ptApvH3OJSlGN74N/BWw0B3B/eGfREUqmuJenrQ/ltH1lleSUmS415SyeiYN5VVaRrBgNb6klb2y LGbThXHGIClFNuYDQyiTKazN2DScSEVKGuRnBtgry+QOyytJKfMhrxhCmZydjvIqPSNYAM+xiz2z 5BbQkx+MQVLK7MQLhlAGL7MjlRZYSdOOL2lp7yyxBznMECSl0Ef0NoQSm8o6jE7LyaTpPYlpTGEP +2eJ9XfnLkmpNIUDDKHEzuLl9JxMnVQ1TR0Gs5s9tIRe8LGspJSqyzd0N4YSeomd0/J4ENIzyf0P lRzP7/bRErrUCCSl1AKuMoQSmsyxaSqv0lZgwc8cby8tmQ951RAkpdYdToEooZMYk64TSt9atd/Q g3XtqSVxBl8bgqTUWkBDdjCGkriX/0vbKdVJYTOtwOd0tLcW3besyUJjkJRiKzCKFYyh6MayLpPS dlIVKWyoKRzhhb8ELjdlSSk3hVsNoegWclT6yqt0jmAB/IOz7LNFNY4uzDYGSSm3CiNpZAxFdWU6 92KpSGlzXcgw+2yRPxCWV5KycDN5vyEU1Zf8OZ0nVie1TbYB79HAnlskU+nIFGOQlAFrMCy1gxHl N5dN+Cydp5beTvMJf7XnFs31lleSMuJbnjSEovnvtJZXaR7BggpeZWt7bxHMoYurw0jKjI35wBCK 4m22YUF6i5D0WsgxTLf/FsGdlleSMuRDXjOEIphKv/SWV2lcaHRJk/iJfe3DBbaAI5hoDJIyZDxH GELBHccbaT69tE/cu4d77cMF9jjfG4KkTHmeTwyhwO7ivnSfYPrfjDjVcqDAVqWxIUjKlCapnrFc Dt9yetpPMf0F1jQOZY59uYD68CorG4OkzGjNC6xvDAU0h0PTP0c6C2t7DOVCe3NBbcq79DAGSZnQ hXfoYwwFdX4WHrlmY9CzDk+ylz26oMazO0ONQVLKbcRg2hpDQT3H7lRaYKXFynzKavbqgprBwTxj DJJSbEceo7kxFNRPrM9vWTjRrCz//yuHpXm1jbJoylOcYAySUqs/z1heFdhCjspGeZX2dbCWNIqG bGXfLnB5vieNGWIQklJoINdl6BpZKv+PO7Jyqll68bQer7Glvbvg7uIE5hmDpBSpyw2caAwF9xbb Md8CK4068Qmt7OEF9yyHMM0YJKVEc/7FrsZQcJNYn9HZOd2KTDXuKI7LwpsLJbcbb9HRGCSl5Fb8 bcurIqjkmCyVV2Tu+fLXtGBz+3nBtaUf72XroyMplTZlCN2MoQiu4LpsnXD2Fv+vxytOdi+KORyX 9p2lJKXcgdztZmBF8S7bZG22bkXmGnk+B/GLfb0IGnIPl7hfl6RA1WEgD1leFcV4Dszey1DZvBxu x0u+fFskD9OfWcYgKbhbxFvpZwxFsYBdeSl7p53NMuNHFrC9fb4o1mIHBjPDICQFZEUGu6Fa0VzE PVk87aw+0KngaXa31xetgN2TL41BUiDW4Wk6G0ORDGLvbL6/n90ZM60YShd7fpFM52geNQZJAdiT +2hhDEUyit78ns1Tr8hso09iP+cKFU0zHuaSDPcuSWGow0CetLwqmtnsn9XyikxP9R7H7+xh/y/a 11YfNuEZZhuFpIRqwb84zXefi+gUBmf5Mphtd3GUn4Ai+oF9+MoYJCXQ6jxJL2Moogc4PMunn/UC qynvs5afgiKaSj+eNgZJCbMP99DcGIroCzZjZpYDyPosmRnsmd3nwyXRgiedjSUpUeowkMcsr4pq Evtlu7xyBAtgFwa77GiRPclRTDUGSQmwAveypzEU1QJ248Wsh2BhAT8wl77GUFQ9OYDXGW8Qksps TV5kS2MosoHcawgWWABvswZrG0NRrcjRTOBjg5BURkfyFKsZQ5E9wABD8BHhvzXmTXobQ9Hdy0lZ fyovqUwacQ0nGEPRfcYWfs9bYC2pEx+ysjEU3accyA/GIKnEevAI6xlD0f3OJowwBvAtwv8Yxf7M M4aiW5+POdAYJJXU3nxgeVUC8znQ8urfnIP1H6OZxi7GUHQNOZDVeJEFRiGpBOpxMdfR2CBK4Cz+ ZQiKdjeV/lOSf96ivd1NUtF14G2/cUv0z112tyU5B2tpjXidTYyhJKZwovc6kopqH26ntTGUxMf0 YZYxWGDFW5WPfIm3ZHyrUFLxbpgv5QxjKJHxbMRYY7DAqtoWvEwjYyiRLziEYcYgqcDW4iHXNyyZ 2WzPu8awNN8iXN47HEmlMZTIOgzlTGOQVFBH8oHlVclUcpzl1fJ8izDKMCrYxhhKpB67sB4v+exe UkGswF38F/UNomT+ynWGsDwfEcblci+HG0MJjeFw3jQGSbW0KQ/SxRhK6BEO9qlPFEew4jxLXxcS KOk9Zz/q8hYLjUJSDdXnL9zlW4Ml9S77MN8YojiCFW8l3qObMZTUhxzJN8YgqQZ6ci8bGUNJ/chm jDeGaE5yj/cbezHZGEpqYz5hoL1SUt6DBSfwkeVViU1jL8urqjqlqrIzg6lnDCU2hKNdT0VSzlbh dnYzhhJbwD4MNoZ4zsGq2nAms6sxlFhXjmUiQw1CUg4O5DnWNYaSO4P7DUG1c507TJXln4dZ0c4n qUotuddvy7L8c42drzo+IqxePQaxizGUwc8cy/PGICnGLtzu1mZl8Rx7ssAYLLBqrwVvsJ4xlEEl d3GOrxpIWk5LrqK/17Cy+IRtmGYMFliFsSrv0skYymIcp/K4MUhawm7c7EqFZTKWzX0NKRe+EJ+b X9iVicZQFqvwGA+zskFIAqAVN/OM5VWZTGRHyysLrML6mt2YaQxlciBfcqQxSOJAvuUEYyiT2ezt YtAWWIX3Poc6qa9s2nA3g2hnEFKGteVRx7PLaCFH8JYx5Mp1sPLxratildXq9GccnxmElElHMYgN jaGMzuBuQ1DxXOb6J2X+51V62g2ljOnG8377lfmfS+yGjmAV1xC6uGRDWXXmOOrzro9rpYyoz3k8 7I1VmT3EqVQaQz5cpqEmH/Zn2NEYyux7TmGIMUiptxU3saYxlNlr7MIcY7DAKr4WvM76xlBmldzH ufxqEFJqteISjvc6VXZfspULPltglUo73qGjMZTdb5zH3Q5bS6m8OvXnMlYyiLIbzeb8bAwWWKXT gzdpawwJ8CYnMcwYpJR9w95IX2NIxG3s1nxtDDXhOlg19T07M8kYEmArPuUaWhiElBJN+QtfWF4l wlR2sbyqKUewamNzXqKpMSTCL1zAvT4slIK/Jh3AlXQwiESYxS68YQwWWOWxE4NoYAwJ8SGn8YEx SMHagGvpYwwJMY99ecYYas5HhLXzIkez0BgSYmPe5R630ZCC1Jpr+NDyKjEqOcHyqnZcaLS2vuBX djeGhKjDehzHbD7yYaEU1K1+P55me2/5E+QcbjIEC6xy+4gFbG8MidGYXdiLYYw2CikI2/AUJzmf NVH+zOWGoGS43H2qEvfPILrbMaWE68HDLPT7KmH/XGPHdAQrOYbQzl3eE2Z1TqY9HzDDKKREas3/ cA/r+rJVwtzDSYZggZUkz9KLtYwhYb27N8cBQ5lvGFKi1Od0nqAv9YwiYZ7kCF/dKgzvHAqnIU+z kzEk0Agu4FGnvUuJue4cyCV0MYgEeoG93dTZAiuJGjPY6e4J9QEDeNMYpLLbhCvYyhgS6U12dVJF 4fhSbCHNYi8v4on9Un+dR+hpEFIZ9eQR3rO8Sqg3LK8KyxGsQmvKc359JNZCHuMCRhiEVHId+DPH OOcqsd5jJ6YZgwVWsq3Ai2xiDIk1l7v4C78YhFQyKzGAM2lkEIn1CTswyRgssJKvJS+xkTEk2Ayu 5xImG4RUdM05hYtoYRAJ9hnbM9EYLLDC0IohrouVcBO5jisdEpeKqAmnM5BWBpFoX7A9vxmDBVY4 2vAqaxpDwv3C37jNl5KlImjE8VzEKgaRcMPYjgnGYIEVWon1Gr2MIfEmcBXXMssgpIJpQH/+m3YG kXjfsy0/G4MFVnja8TrdjCGQIus6ZhqEVGsNOcriKhCj2IZRxmCBFaaOvE5nYwjCOC7nJossqRaa chLn0dYggvAj2zDaGCywwtWBV+huDIH4jRu4iqkGIdWguDqOgaxqEMGUV9sz0hgssMLWnpdZ3RiC 8StX8k+LLCkPLTiVc1jJIILxLTvwkzFYYIWvLUNY2xgCMo07ucyvHykHbTiFM1yKISjfsINT2y2w 0vMV9BLrGkNQ5vIvLuYbg5BideVMjqexQQTla3ZwLwsLrDRpxQtsbAyBWciz/I33DEJazvqcw2HU NYjAfMqOLitqgZU2LXmeTY0hQG9zKYOpNAhpkT4MZA9jCNBQduZ3Y7DASp8VeI7NjSFIn3AFjzLX IJRxDTiQAaxvEEF6l12ZYgwWWOnUlEFsZwyBGs9dXOvUUGXWyhzDqXQwiEC9xW7uvmqBlWZNeIq+ xhCsOTzMFXxuEMqYNTiF42hiEMF6g92ZbgwWWGkvsZ5gJ2MI2itcyyAWGoQyoII9OdOR98C9wL7u uGqBlQUNuJ8DjCFwI7iFW5hkEEqx5hzK2fQ0iMA9xSHMNgYLrGyoy60cbQzBm8Z93MxnBqEUWo8T OYLmBhG8OziBBcZggZWl5C9jgDGkwlBu4T63iVZqNGQvTnCuaEpcx5kuMmOBlT0DucQQUmIK/+I6 vjQIBa4Hx3KsuwqmxqVcYAgWWNl0MtdTYQypMZRbuMe5DgpSA/bmBHbwqpAalZzD1cZggZVdh3Mn 9Y0hRcZzJ3fxrUEoID3pT3/aGkSKzKM/DxiDBVa27c4jbpaaOkO5l/vckkKJ14J96Oe4VerM4VCe MAYLLG3NIFoYQ+rMZhD38qzv7yiRKtiCfhxOU6NInensw8vGYIElgN48x8rGkEo/cR+38YNBKEE6 cBgn0NUgUmkiu/G+MVhg6d968qJ7fKVWJW9wN08w2ShUZi3Zj6PYyu/+1BrNTs4BtcDS0lblGTYw hhSbw0s8wmPMMAqVQSN25ED2dz/BVPuS3RhjDBZYWlYzHmVnY0i5WQzmXp5nnlGoROqyOf04xJme qfcK+zHFGCywFKUBd3KYMWTARJ7hHl52hWUVWW+O5GAXYMiER+nnKnwWWKqqRdxCJztG8zCP8z4L jUIFVsFm7MdBzuzMjMu4wBs2CyxV53Sudn33DPmV53nEh4YqkLpszoHsTzujyIwFnMkNxmCBpVzs wwMuPpoxE3mGR3iROUahWpVWB7GKUWTKHI7kYWOwwFKutuIpWhlD5kxhMI/xAjONQnlowi7sxx6s YBQZvDXbi7eNwQJL+ejFc3QyhkyazVsM4UlXs1G1OrEzfdmVZkaRST+yK98YgwWW8uXKWFk3gsEM 4nVnZ2k5dVmfPdmDDf0Wz7Av2I2xxmCBpZpowcOujJV5v/MCg3mBiUYhoDW7sAc709ooMu45Dmaa MVhgqabqcTWnGoNYwLsM4SU+YL5hZPS7YFP6siObUdcwxHWc7UbyFliqrRO4gXrGIABm8C5DGMLH rnmTGV3pS192pKVRaNHt1jlcawwWWCqEnXjY94O0lHG8yRCe4SejSK2V2Za+7OzLLlrKNA5jsDFY YKlQ1mYQnY1By6jkM17nDd7kV8NIjTZsxdZsw7p+Q2s5P7IHXxmDBZYKaSUeZytjUIwRvM1bvMiP RhGsVelDH7b0zUDFeo99GG8MFlgqtIbcxhHGoCr9wlsM4W2GOUcrGKuxJX3pw5pGoSo9wlHMMgYL LBWnvc7n77aacjCFD3mbobzt8g4J1Yz16c2WbE1bw1C1KrmMC71tssBSMR3I3e5TqDyM4G2GMpQP mGsYZVeXnvSmN1uygVu6K2dzOI77jMECS8W2BY97z6u8TWco7/MJn/A9C42jpCrowQZswKb0dlMb 5W0c+/GuMVhgqRTa8RibGoNqaC4/MJShDOVjt5UuovqsTm9605v1LKtUY5+wL6OMwQJLpdKImznS GFRL8/mGT/iUzxnGz8ZRoNufXqzL+mxATxcIVq3dzUnMNgYLLJXWCVxPfWNQgUzhB4bxFcP4ih99 iJiX1ViTrqzFmqxLG+NQwW6A/sylxmCBpXLYnn+xkjGo4KbxDV/xNd8xnOE+RozQhG50pwe9WIue NDcQFdxvHMSrxmCBpXLpwONsZAwqqkmMWOqfbGpF1yX+6ew7gCqqz9iXkcZggaVyasrtHGwMKmG5 NZzRjGE0YxnLKMaxIIVnWZdV6ER72tORDnSkG61sepXMgxznyLEFlpLQigP5P+oahMpiPr8wmjGM YSwT+IVf+TW4nRFXZmVWZlXa0IH2dKAjqzpBXWWygAu53BgssJQUu/IALY1BiSm6fuVXfmECvzKe CUxe4p/yabnEP21YhZUX/b8rW0wpMSZyKC8agwWWkqQHT7CWMSjxJi1RbM1mKnOYyUzmMJX5TGYe 05m1+LX0qYsfP85kzqL/1ZAmi/5XXVos+l+NaEwz6tOSerSgIU1oQkNa0GiJkspHfEq+L9iX4cZg gaWkacz1HGMMkhSk+ziJGcaQFr4HkyazONa91iUpQHM4i36WV2niCFb6bMgjdDUGSQrGaA7ifWNI F0ew0udjNuQJY5CkQDzDBpZX6eOr/Wk0h4eZRF/LZ0lKuAX8P05yzas08hFhem3DQ6xiDJKUWL9y OC8ZgwWWQtOOf7GlMUhSIr3JIfxsDGnlI8I0m8Y9NGRLy2hJSphKruMIphhEennpTb/9uN013iUp QSZxDE8agwWWQteBB+hjDJKUCO9zKCONIe18RJgFU7mXSrbyrUJJKrNKruNQfjeI9HMEKzu25T7a GYMklc14jnQr56xwTCM7XmN9BhuDJJXJi6xneZUdPiLMkpk8xCS2o55RSFJJzWEApzPdILLDR4TZ syEPsroxSFLJfMuhfGIM2eIIVvb8wu00Z1ODkKSSuJe9GW0MWeMIVlb14waaG4MkFdVUTuF+Y7DA UpZ05m62NgZJKpr36McPxpBNPiLMrsncwyS2tw9IUhHM4//o74pX2eUIVtatzX2sZwySVFDD6MfH xpBljl5k3QTuoj5bWGpLUoFUciv7O60967ysCmB77qKDMUhSrY2mP68agxzBEsBIbmdFehuEJNXK I+zJ18YgR7C0pAO4iRWNQZJqZDKnc58xyAJLy2vLbexhDJKUt5c4hrHGoH9zs2ctaTx7cTLTDEKS 8jCNk9nZ8kpLcgRLy1uNf7KXMUhSTl7gBN8Z1LIcwdLyfmZvDmKiQUhSNaZwIrtaXml5jmApzir8 k32MQZJiPceJjDEGRXEES3HGsS8H8ZtBSFKEyZzIbpZXiuMIlqrWlhvY3xgkaSmDOYmfjEHxHMFS 1cZzAAfxq0FI0iITOIo9La9UNVdyV/WGcRutXOddkoBH2IN3jUHV8RGhcrU319PeGCRl2GhO52lj UC4cwVKuvuVm6rG5j5UlZdJCbmUfvjAI5cYRLOVnfW5mE2OQlDGfciIfGINy52iE8v2S2ZwT3UxH UobM5AI2srxSfhzBUk2sxjUcYAySMmAwp7pSuyywVDp7cj0djUFSiv3MWTxiDKoJJ7mrpr7jVuo6 6V1SSi3kVvbmE4NQzTiCpdrZmJvZwBgkpczHnMhHxqCac/RBtfMhG3GUOxZKSpFJnMUmlleqHR8R qrYq+YzbacxGluuSgreQ+9iTV6g0CtWOjwhVKBtyHVsYg6SAfcTpvGcMKgTHHFQoH9OHoxhvEJKC 9DtnsanllQrFR4QqpM+4jTpsYr+SFJT5XM++vO6DQRWOjwhVeGtwLTsZg6RAvM7p7jGoQvMRoQrv W3ZmL0YZhKTE+5mj2M7ySoXnoxwVx3fcykI2or5RSEqomfydQ1yOQRZYCss8XuVumrG+46SSEqeS R9mHJ5lnFCoO52Cp2DbkKrYxBkkJ8h7n8K4xqJgcW1Cxfcy27MhXBiEpEb7nIDa3vFKxOYKl0qjP 0fwfKxuEpDKaxKVczRyDUPE5B0ulsZCh3AZsTD3DkFQG87id/XiRBUahUnAES6XVg79xgP1OUokN 5mx+MAaVjnOwVFrfcxDbOvtBUgm9w9bsaXklCyyl3RtswY58ahCSim4YB9GHNw1CpeajGpWvuN+f i+luEJKKZDR/43bnXMkCS9lTn6P5C6sahKQC+40rfF9QFljKsqacxgW0NAhJBTKdG7iYqQahcnKZ BpXbPN7mVqC3+xZKqrW53M4+POXYlcrNESwlRTvO5yQaGISkGt+u3clf+dkgZIElLa07f+ZwlyKV lLf53Mf/MdwgZIElRevMhRxjkSUpZwt5jD/z/9u7u5iq6wAO488QQhQMcvhCgmZaC7d8OW2WoFt5 zJpapnP2Mi1zWW05t25cq62LLqq1VdrLlq1yWOrEZg3KaWitJHPr2CtYhCiSUalBSAKC2IWsZqwS PRzOy/NhOzs3XvDFsz07539+/yqHkIElGVmSwhVXj/KDQ8jAkowsSeHQzkaeMK5kYEnnE1lL/Hah JONKBpYUXiN5mPtJdQhJxpUMLCmcRvMIiz3CQRJtFPEkBxxCBpYUHkN5kBWe+C4lsGZe5xl+dAgZ WFJ4DWIJK713oZSAjvAyq/nNIWRgSb0jlYU8xliHkBJGLc/xKiccQgaW1LuSmMXjBBxCinvf8gzr 6XAIGVhSpBTyOEFnkOJWOU9TymmHkIElRT6yVjLL/8dSnOnkPZ6m3CFkYEl9ZwzLWcpAh5DiQivF PEWlQ8jAkvreIJbwMHkOIcW0n3mFFzjmEDKwpOiRxCxWUuAQUkwKsZoNtDuEDCwpGgVYwR3eJFqK IZ28zyrKHEIGlhTdhnM/y7nEIaSo18RanqXWIWRgSbEhnXt4iCsdQopa3/Mia2l2CBlYUqwJsILb SXEIKaqcYiur2OEZVzKwpNg1jLt5gFEOIUWFeop4iTqHkIElxb4kbmAZ8+jnFFKf6WQna9jijW9k YEnx5XLu416yHUKKuEY28Tz7HEIGlhSfUrmFZd7DUIqgEGtYR4tDyMCS4t3VLOUuBjuE1KuO8hav 8Y1DyMCSEsdFzGQRt3koqdQLOtnJOop930oGlpSYcljEUsY6hBQ2VWzgDQ8PlYElKcAy7iTdIaQL 0koJazzfSjKwpL+lMZtlTPdVIZ2XEGvYwHGHkAwsqbsrWcydHksq9cAB1lNElUNIBpb03wIsZiFD HUL6Tw2UUuRHgpKBJZ27flzPYuaS4RRSNy3soIh3aHcKycCSei6NIIu4lYucQgLgFB+yji1ebSUZ WNKFymIOi7wAXgkvxDo28otDSAaWFD6jWMh8rvF1o4Rzms/ZzCYOOoVkYEm9I5d5LOA6kpxCCaGS Yt6k2iEkA0vqfdnczAJu8kY7ilud7KaYzRx2CsnAkiJrMLNYwExSnEJx5BSfUcwm6p1CMrCkvsys ucxnut80VMw7yQ7e5h2OOYVkYEnRYQDTmc0chjuFYtAxdlLKu/zuFJKBJUWfJCYyh9lM8tWlGFFD KSV8RIdTSAaWFO1GMpM5zCDVKRSlOthDCVu8h6BkYEmx5szHhrPJcQpFkaNspYRtNDmFZGBJsSuJ ADcygyl+21B96iSf8gHb2UunY0gGlhQvBjCFIEGvz1LE1VBGGdu9hF0ysKT4NYypBP2+oSLgGDsp Yxu1TiEZWFJiSGIiQYJM9UJ4hV0HX1FGKZ/6YaBkYEmJaQCTKCBIIf0dQ2EJq3I+9sNAycCSBJDM eIIUMo1BjqEeOsEX7KKMclocQzKwJP17aBWS6Rj6H3+wm3J28QltjiEZWJLOJbQCTKOAaxnqGPqH n9nDLj5mr+evSwaWpPOTQ4ACCgl4lVaC66CKXZQTopLTziEZWJLCIZnxFBIgQL5jJJR6Ql1h5RVW koElqdfkMJnrmMwEL4iPY018yR52s4efHEMysCRFNrUCBAhwDcMcIy40UkGIECH2eYaVZGBJ6vvU ymccAQJc5Ss75tQTIkQFlVQ4hmRgSYpGlzCRiYwnn6tIc46o1cI+KviaL9hLg3NIBpak2HHmfa18 xjGBgc7R505S3fU+VSXfccpBJANLkrElo0qSgSXpX/QjjzF//Vzu7abDrJX9VFNNNfup5pBRJRlY khJRFqMZRz6jGc0VZDhIj7VxmBpqqKSCGmpNKsnAkqSz5XAZueSSy0hGkEu2k3RzhDrqqKWOOuo4 6ElVkgwsST2TRh655JJHHiPI5dKEO960icNdKVXLj9RxyBPVJRlYksItlcFkMZycsx6H0C/mf7NW fqKehrMe62jyTy7JwJLUN5IZQjbZZJJFZrfHaLmQvo0GGmns9niEXzlCh39GSQaWpNiRRiZZpDOI /qSRTgpZJJNBGv3JIIVMUkgH4GKSuv5NBsldzwb8FWhtnOh61sHxrmed/A5AM+000s5xWmnhOB00 0E4zJ2ijiWYaaPTDPUmR8Ce7FmzCUD8GcAAAACV0RVh0ZGF0ZTpjcmVhdGUAMjAxNy0wOC0yNVQw OTo0ODozNyswMDowMNfXMSgAAAAldEVYdGRhdGU6bW9kaWZ5ADIwMTctMDgtMjVUMDk6NDg6Mzcr MDA6MDCmiomUAAAAAElFTkSuQmCC "
     style="image-rendering:optimizeQuality"
     preserveAspectRatio="none"
     height="1200"
     width="1200" />
  <path
     id="path4551"
     d="m 572,1199.3123 c -3.575,-0.1664 -14.6,-1.0017 -24.5,-1.8564 C 389.40996,1183.8077 241.96407,1106.3545 139.24489,983 -42.564244,764.66707 -46.579254,451.27677 129.58379,228.90637 211.3162,125.73565 323.66717,52.185591 449.5,19.474637 602.55832,-20.313736 763.14385,1.7063794 900.5,81.31752 980.80152,127.86 1051.7143,195.4276 1103.2466,274.5 c 122.0697,187.30672 128.9172,427.82371 17.7076,621.97831 -90.7123,158.36959 -247.37619,266.94619 -427.05258,295.97069 -37.94559,6.1297 -83.06534,8.67 -121.90162,6.8633 z m 59.81261,-128.3575 c 84.40973,-6.0071 162.54784,-32.4674 231.18739,-78.28801 24.49648,-16.35274 55.5199,-41.5753 54.74918,-44.512 -0.23886,-0.91014 -24.20188,-52.61833 -53.25115,-114.9071 L 811.68117,719.99538 599.80628,720.24769 387.93139,720.5 335.44386,833 c -28.86815,61.875 -52.74006,113.46692 -53.04869,114.64872 -0.46227,1.77011 1.27908,3.72844 9.88265,11.11409 76.14236,65.36359 172.15892,104.69139 273.72218,112.11479 16.90037,1.2353 49.01017,1.2729 65.81261,0.077 z M 356.39915,485.5 C 446.17663,293 519.27781,135.35461 518.84622,135.17692 c -1.10231,-0.45385 -20.07324,3.3757 -34.34622,6.93327 -70.7276,17.62902 -136.11612,51.33898 -192.38919,99.18307 -14.13231,12.01547 -41.31325,39.44631 -53.21746,53.70674 -59.55498,71.34279 -95.78288,154.54074 -107.33651,246.5 -12.07015,96.07046 6.39809,196.43633 51.76257,281.30426 5.55019,10.38331 8.44866,14.88489 9.01428,14 C 192.79222,836.08692 266.62168,678 356.39915,485.5 Z m 667.56195,323 C 1091.5917,670.48474 1087.454,504.14317 1013.066,370.5 990.8874,330.6547 965.70582,297.43434 933.09265,264.99662 878.40815,210.6063 815.32211,172.52567 741.5,149.3455 c -19.12683,-6.00583 -57.93897,-15.10867 -60.41113,-14.16858 -0.63374,0.24099 306.33053,660.4625 323.96153,696.77938 l 3.1344,6.45629 4.458,-7.95629 c 2.4519,-4.37597 7.5451,-14.2563 11.3183,-21.9563 z M 750.20255,588.25 c -1.01095,-2.0625 -35.1076,-75.1838 -75.77032,-162.49178 -40.66273,-87.30798 -74.17781,-158.74548 -74.47797,-158.75 -0.30016,-0.005 -34.46308,72.77928 -75.91761,161.74178 -41.45452,88.9625 -75.54799,162.0875 -75.76327,162.5 -0.21528,0.4125 68.04429,0.75 151.68793,0.75 h 152.07934 z"
     style="fill:#000000" />
</svg>
